####
#
#	OBJ File Generated by LightWave3D
#	LightWave3D OBJ Export v2.3
#
####
o Toy Shark.obj
mtllib Toy Shark.mtl
g default
v 0.0908713 0.111345 0.068368
v 0.128275 0.0843129 0.068368
v 0.156975 0.049084 0.068368
v 0.175017 0.00805911 0.068368
v 0.181171 -0.035966 0.068368
v 0.175017 -0.0799911 0.068368
v 0.156975 -0.121016 0.068368
v 0.128275 -0.156245 0.068368
v 0.0908713 -0.183277 0.068368
v 0.047314 -0.20027 0.068368
v 0.000571271 -0.206066 0.068368
v -0.0461714 -0.20027 0.068368
v -0.0897287 -0.183277 0.068368
v -0.127132 -0.156245 0.068368
v -0.155833 -0.121016 0.068368
v -0.173875 -0.0799911 0.068368
v -0.180029 -0.035966 0.068368
v -0.173875 0.00805911 0.068368
v -0.155833 0.049084 0.068368
v -0.127132 0.0843128 0.068368
v -0.0897287 0.111345 0.068368
v -0.0461714 0.128338 0.068368
v 0.000571271 0.134134 0.068368
v 0.047314 0.128338 0.068368
v 0.101422 0.126934 -0.202115
v 0.143433 0.0982443 -0.202115
v 0.175668 0.060855 -0.202115
v 0.195933 0.0173142 -0.202115
v 0.202844 -0.0294108 -0.202115
v 0.195933 -0.0761358 -0.232115
v 0.175668 -0.119677 -0.202115
v 0.143433 -0.157066 -0.202115
v 0.101422 -0.185756 -0.202115
v 0.0525 -0.203791 -0.202115
v -7.45058e-009 -0.209942 -0.202115
v -0.0525 -0.203791 -0.202115
v -0.101422 -0.185756 -0.202115
v -0.143433 -0.157066 -0.202115
v -0.175668 -0.119677 -0.202115
v -0.195933 -0.0761358 -0.232115
v -0.202844 -0.0294108 -0.202115
v -0.195933 0.0173142 -0.202115
v -0.175668 0.060855 -0.202115
v -0.143433 0.0982443 -0.202115
v -0.101422 0.126934 -0.202115
v -0.0525 0.144969 -0.202115
v 3.72529e-009 0.151121 -0.202115
v 0.0525 0.144969 -0.202115
v 0.0909327 0.0983177 -0.329953
v 0.175668 -0.0694298 -0.329953
v 0.1575 -0.105397 -0.329953
v 0.128598 -0.136283 -0.329953
v 0.0909327 -0.159982 -0.329953
v 0.0470702 -0.17488 -0.329953
v -1.11759e-008 -0.179962 -0.329953
v -0.0470702 -0.17488 -0.329953
v -0.0909327 -0.159982 -0.329953
v -0.128598 -0.136283 -0.329953
v -0.1575 -0.105397 -0.329953
v -0.175668 -0.0694298 -0.329953
v -0.175668 0.00776532 -0.329953
v -0.1575 0.0437325 -0.329953
v -0.128598 0.0746183 -0.329953
v -0.0909327 0.0983177 -0.329953
v -0.0470702 0.113216 -0.329953
v -3.72529e-009 0.118297 -0.329953
v 0.0470702 0.113216 -0.329953
v 0.0742462 0.0651432 -0.421964
v 0.105 0.0474446 -0.421964
v 0.128598 0.0243793 -0.421964
v 0.143433 -0.00248091 -0.421964
v 0.148492 -0.0313054 -0.421964
v 0.143433 -0.0601299 -0.421964
v 0.128598 -0.0869901 -0.421964
v 0.105 -0.110055 -0.421964
v 0.0742462 -0.127754 -0.421964
v 0.0384327 -0.13888 -0.421964
v -7.45058e-009 -0.142675 -0.421964
v -0.0384327 -0.13888 -0.421964
v -0.0742462 -0.127754 -0.421964
v -0.105 -0.110055 -0.421964
v -0.128598 -0.0869901 -0.421964
v -0.143433 -0.0601299 -0.421964
v -0.148492 -0.0313054 -0.421964
v -0.143433 -0.0024809 -0.421964
v -0.128598 0.0243792 -0.421964
v -0.105 0.0474446 -0.421964
v -0.0742462 0.0651432 -0.421964
v -0.0384327 0.0762691 -0.421964
v 0 0.0800639 -0.421964
v 0.0384327 0.0762691 -0.421964
v 0.0525 0.0587289 -0.455337
v 0.0742462 0.0453797 -0.455337
v 0.0909327 0.0279828 -0.455337
v 0.101422 0.00772357 -0.455337
v 0.105 -0.0140172 -0.455337
v 0.101422 -0.035758 -0.455337
v 0.0909327 -0.0560172 -0.455337
v 0.0742462 -0.0734142 -0.455337
v 0.0525 -0.0867634 -0.455337
v 0.027176 -0.095155 -0.455337
v -7.45058e-009 -0.0980172 -0.455337
v -0.027176 -0.095155 -0.455337
v -0.0525 -0.0867634 -0.455337
v -0.0742462 -0.0734142 -0.455337
v -0.0909327 -0.0560172 -0.455337
v -0.101422 -0.035758 -0.455337
v -0.105 -0.0140172 -0.455337
v -0.101422 0.00772357 -0.455337
v -0.0909327 0.0279828 -0.455337
v -0.0742462 0.0453797 -0.455337
v -0.0525 0.0587289 -0.455337
v -0.027176 0.0671205 -0.455337
v -3.72529e-009 0.0699828 -0.455337
v 0.027176 0.0671205 -0.455337
v 0.027176 0.0453709 -0.502781
v 0.0384327 0.037338 -0.502781
v 0.0470702 0.0268693 -0.502781
v 0.0525 0.0146782 -0.502781
v 0.054352 0.00159561 -0.502781
v 0.0525 -0.011487 -0.502781
v 0.0470702 -0.0236781 -0.502781
v 0.0384327 -0.0341468 -0.502781
v 0.027176 -0.0421797 -0.502781
v 0.0140673 -0.0472294 -0.502781
v -3.72529e-009 -0.0489517 -0.502781
v -0.0140673 -0.0472294 -0.502781
v -0.027176 -0.0421797 -0.502781
v -0.0384327 -0.0341468 -0.502781
v -0.0470702 -0.0236781 -0.502781
v -0.0525 -0.011487 -0.502781
v -0.054352 0.00159561 -0.502781
v -0.0525 0.0146782 -0.502781
v -0.0470702 0.0268693 -0.502781
v -0.0384327 0.037338 -0.502781
v -0.027176 0.0453709 -0.502781
v -0.0140673 0.0504206 -0.502781
v 0 0.0521429 -0.502781
v 0.0140673 0.0504206 -0.502781
v 0 0.0400115 -0.565771
v 0 0.0489342 -0.568872
v -3.72529e-009 0.0316205 -0.559451
v 3.72529e-009 0.0178534 -0.552837
v 0 0.00530525 -0.547801
v 0 -0.00683361 -0.541845
v -3.72529e-009 -0.0176298 -0.535554
v 0 -0.0264149 -0.52966
v 0 -0.0328138 -0.524879
v 0.0472839 0.0300956 0.264649
v 0.0657739 0.0207473 0.264649
v 0.0799618 0.00856424 0.264649
v 0.0888806 -0.0056232 0.264649
v 0.0919227 -0.0208482 0.264649
v 0.0888806 -0.0360732 0.264649
v 0.0799618 -0.0502606 0.264649
v 0.0657739 -0.0624437 0.264649
v 0.0472839 -0.071792 0.264649
v 0.0257519 -0.0776687 0.264649
v 0.00264517 -0.0796731 0.264649
v -0.0204615 -0.0776687 0.264649
v -0.0419936 -0.071792 0.264649
v -0.0604836 -0.0624437 0.264649
v -0.0746714 -0.0502606 0.264649
v -0.0835903 -0.0360732 0.264649
v -0.0866323 -0.0208482 0.264649
v -0.0835903 -0.0056232 0.264649
v -0.0746714 0.00856424 0.264649
v -0.0604835 0.0207473 0.264649
v -0.0419936 0.0300956 0.264649
v -0.0204615 0.0359723 0.264649
v 0.00264517 0.0379767 0.264649
v 0.0257519 0.0359723 0.264649
v 0.0304126 0.0393777 0.331832
v 0.0428422 0.0318632 0.331832
v 0.0523798 0.0220702 0.331832
v 0.0583754 0.0106659 0.331832
v 0.0604204 -0.00157231 0.331832
v 0.0583754 -0.0138106 0.331832
v 0.0523798 -0.0252148 0.331832
v 0.0428423 -0.0350078 0.331832
v 0.0304126 -0.0425223 0.331832
v 0.015938 -0.0472461 0.331832
v 0.000404836 -0.0488573 0.331832
v -0.0151283 -0.0472461 0.331832
v -0.0296029 -0.0425223 0.331832
v -0.0420326 -0.0350078 0.331832
v -0.0515702 -0.0252148 0.331832
v -0.0575657 -0.0138106 0.331832
v -0.0596107 -0.00157231 0.331832
v -0.0575657 0.0106659 0.331832
v -0.0515702 0.0220702 0.331832
v -0.0420326 0.0318632 0.331832
v -0.0296029 0.0393777 0.331832
v -0.0151283 0.0441015 0.331832
v 0.000404838 0.0457127 0.331832
v 0.015938 0.0441015 0.331832
v 0.0214679 0.156095 0.381278
v 0.0291998 0.136273 0.381278
v 0.0351326 0.11044 0.381278
v 0.0388622 0.0803562 0.381278
v 0.0401343 0.0480727 0.381278
v 0.0388622 0.0157893 0.381278
v 0.0351326 -0.0142941 0.381278
v 0.0291998 -0.0401273 0.381278
v 0.0214679 -0.0599498 0.381278
v 0.0124639 -0.0724107 0.381278
v 0.00280151 -0.0766609 0.381278
v -0.00686093 -0.0724107 0.381278
v -0.0158649 -0.0599498 0.381278
v -0.0235968 -0.0401273 0.381278
v -0.0295296 -0.0142941 0.381278
v -0.0332592 0.0157893 0.381278
v -0.0345313 0.0480727 0.381278
v -0.0332592 0.0803562 0.381278
v -0.0295296 0.11044 0.381278
v -0.0235967 0.136273 0.381278
v -0.0158649 0.156095 0.381278
v -0.00686093 0.168556 0.381278
v 0.00280151 0.182806 0.378278
v 0.0124639 0.168556 0.381278
v 0.0175878 0.168383 0.415269
v 0.0220762 0.146023 0.415269
v 0.0255203 0.116883 0.415269
v 0.0276853 0.0829489 0.415269
v 0.0284238 0.0465331 0.415269
v 0.0276853 0.0101173 0.415269
v 0.0255203 -0.0238169 0.415269
v 0.0220762 -0.0529568 0.415269
v 0.0175878 -0.0753167 0.415269
v 0.0123609 -0.136709 0.415269
v 0.00645899 -0.140287 0.415269
v 0.00114266 -0.136709 0.415269
v -0.00408422 -0.0753167 0.415269
v -0.00857264 -0.0529568 0.415269
v -0.0120167 -0.0238169 0.415269
v -0.0141818 0.0101173 0.415269
v -0.0149202 0.0465331 0.415269
v -0.0141818 0.0829489 0.415269
v -0.0120167 0.116883 0.415269
v -0.00857263 0.146023 0.415269
v -0.00408422 0.168383 0.415269
v 0.00114266 0.182439 0.415269
v 0.00475178 0.197233 0.410269
v 0.0123609 0.182439 0.415269
v 0.011552 0.178857 0.443901
v 0.0152667 0.151323 0.443901
v 0.0181171 0.115439 0.443901
v 0.0199089 0.0736509 0.443901
v 0.0205201 0.0288071 0.443901
v 0.0199089 -0.0160368 0.443901
v 0.0181171 -0.0578245 0.443901
v 0.0152667 -0.0937086 0.443901
v 0.011552 -0.121243 0.443901
v 0.00722612 -0.138552 0.443901
v 0.0025839 -0.171241 0.558695
v -0.00205831 -0.138552 0.443901
v -0.00638417 -0.121243 0.443901
v -0.0100989 -0.0937086 0.443901
v -0.0129493 -0.0578245 0.443901
v -0.0147411 -0.0160368 0.443901
v -0.0153523 0.0288071 0.443901
v -0.0147411 0.0736509 0.443901
v -0.0129493 0.115439 0.443901
v -0.0100989 0.151323 0.443901
v -0.00638417 0.178857 0.443901
v -0.00205831 0.216167 0.453901
v 0.0025839 0.22207 0.453901
v 0.00722612 0.216167 0.453901
v 0.0025839 0.163631 0.455804
v 0.0025839 0.24013 0.554957
v 0.0025839 0.113874 0.457615
v 0.00258391 0.0712951 0.452594
v 0.0025839 0.0249806 0.457026
v 0.0025839 -0.0238849 0.46438
v 0.0025839 -0.0664638 0.481084
v 0.0025839 -0.102191 0.514987
v 0.0025839 -0.149301 0.570619
v 0.000285637 0.142627 -0.0668735
v 0.049907 0.136654 -0.0668735
v 0.0961467 0.11914 -0.0668735
v 0.135854 0.0912786 -0.0668735
v 0.166322 0.0549695 -0.0668735
v 0.185475 0.0126867 -0.0668735
v 0.192008 -0.0326884 -0.0668735
v 0.185475 -0.0780635 -0.0668735
v 0.166322 -0.120346 -0.0668735
v 0.135854 -0.156655 -0.0668735
v 0.0961467 -0.184516 -0.0668735
v 0.049907 -0.20203 -0.0668735
v 0.000285632 -0.208004 -0.0668735
v -0.0493357 -0.20203 -0.0668735
v -0.0955755 -0.184516 -0.0668735
v -0.135282 -0.156655 -0.0668735
v -0.165751 -0.120346 -0.0668735
v -0.184904 -0.0780635 -0.0668735
v -0.191437 -0.0326884 -0.0668735
v -0.184904 0.0126867 -0.0668735
v -0.165751 0.0549695 -0.0668735
v -0.135282 0.0912786 -0.0668735
v -0.0955755 0.11914 -0.0668735
v -0.0493357 0.136654 -0.0668735
v -0.0493357 0.1739 -0.015499
v 0.000285637 0.179874 -0.015499
v 0.049907 0.1739 -0.015499
v 0.047314 0.166869 0.0876334
v 0.000571271 0.172665 0.0876334
v -0.0461714 0.166869 0.0876334
v -0.0189396 0.211147 0.0525722
v -0.00405315 0.21712 0.0525722
v 0.0108333 0.211147 0.0525722
v 0.0100554 0.209253 0.151851
v -0.00396746 0.215049 0.151851
v -0.0179903 0.209253 0.151851
v 0.203975 -0.203016 0.232368
v 0.213322 -0.202346 0.0431265
v 0.206854 -0.236655 0.0431265
v 0.193147 -0.224516 0.0431265
v 0.187871 -0.223277 0.232368
v 0.199275 -0.236245 0.232368
v -0.215751 -0.200346 0.0881265
v -0.205833 -0.201016 0.233368
v -0.192132 -0.226245 0.233368
v -0.200282 -0.226655 0.0881265
v -0.199729 -0.238277 0.233368
v -0.205575 -0.239516 0.0881265
v 0.166584 -0.112245 -0.296034
v 0.139724 -0.145458 -0.294074
v 0.0987998 -0.171254 -0.294074
v 0.0511426 -0.187469 -0.294074
v -5.83606e-009 -0.193 -0.294074
v -0.0511426 -0.187469 -0.294074
v -0.0987998 -0.171254 -0.294074
v -0.139724 -0.145458 -0.294074
v -0.166584 -0.112245 -0.296034
v -0.185801 -0.0729958 -0.294034
v 0.178767 -0.050131 -0.329953
v 0.145963 -0.0457177 -0.421964
v -0.145963 -0.0457176 -0.421964
v -0.178767 -0.050131 -0.329953
v 0.103211 -0.0248876 -0.455337
v -0.103211 -0.0248876 -0.455337
v -0.053426 -0.0049457 -0.502781
v 0 -0.000764183 -0.544823
v 0.053426 -0.0049457 -0.502781
v 0.171126 -0.118107 -0.234074
v 0.141578 -0.154468 -0.233095
v 0.100111 -0.182534 -0.233095
v 0.0518213 -0.200177 -0.233095
v -7.91624e-009 -0.206195 -0.233095
v -0.0518213 -0.200177 -0.233095
v -0.100111 -0.182534 -0.233095
v -0.141578 -0.154468 -0.233095
v -0.171126 -0.118107 -0.234074
v 0.192477 -0.0410823 -0.304953
v -0.193077 -0.0410823 -0.304953
v 0.190867 -0.0726917 -0.294074
v 0.175668 0.00776532 -0.329953
v 0.128598 0.0746183 -0.329953
v 0.1575 0.0437325 -0.329953
v 0.190867 -0.0526917 -0.294074
v -0.166046 -0.0210823 -0.304953
v 0.16553 -0.0210823 -0.304953
v -0.185801 -0.0529958 -0.294034
v -0.166584 -0.0922446 -0.296034
v -0.139724 -0.125458 -0.294074
v -0.0987998 -0.151254 -0.294074
v -0.0511426 -0.167469 -0.294074
v -5.83606e-009 -0.173 -0.294074
v 0.0511426 -0.167469 -0.294074
v 0.0987998 -0.151254 -0.294074
v 0.139724 -0.125458 -0.294074
v 0.166584 -0.0922446 -0.296034
v -0.166046 -0.0210823 -0.304953
v 0.16553 -0.0210823 -0.304953
v -0.195933 -0.0461358 -0.217115
v 0.195933 -0.0461358 -0.217115
v -0.171126 -0.0881067 -0.219074
v 0.171126 -0.0881067 -0.219074
v -0.141578 -0.124468 -0.218095
v 0.141578 -0.124468 -0.218095
v -0.100111 -0.152534 -0.218095
v 0.100111 -0.152534 -0.218095
v -0.0518213 -0.170177 -0.218095
v 0.0518213 -0.170177 -0.218095
v -7.91624e-009 -0.176195 -0.218095
v 0.185933 -0.0611358 -0.224615
v 0.171126 -0.103107 -0.226574
v 0.141578 -0.139468 -0.225595
v 0.100111 -0.167534 -0.225595
v 0.0518213 -0.185177 -0.225595
v -7.91624e-009 -0.191195 -0.225595
v -0.0518213 -0.185177 -0.225595
v -0.100111 -0.167534 -0.225595
v -0.141578 -0.139468 -0.225595
v -0.171126 -0.103107 -0.226574
v -0.185933 -0.0611358 -0.224615
v 0.169843 -0.0484662 -0.243012
v 0.169843 -0.0595796 -0.248569
v 0.15988 -0.0764369 -0.249356
v 0.15988 -0.0653235 -0.243799
v 0.146785 -0.0888769 -0.246327
v 0.146785 -0.095965 -0.249871
v 0.132807 -0.113165 -0.249407
v 0.132807 -0.106077 -0.245863
v 0.123404 -0.12187 -0.249193
v 0.123404 -0.125476 -0.250997
v 0.0991649 -0.141882 -0.250997
v 0.0991649 -0.138275 -0.249193
v 0.0859074 -0.147756 -0.250495
v 0.0859074 -0.149672 -0.251454
v 0.0553821 -0.160825 -0.251454
v 0.0553821 -0.158909 -0.250495
v 0.0411219 -0.16339 -0.251025
v 0.0411219 -0.164576 -0.251618
v 0.00727642 -0.168506 -0.251618
v 0.00727642 -0.16732 -0.251025
v -0.00727644 -0.16732 -0.251025
v -0.00727644 -0.168506 -0.251618
v -0.0411219 -0.164576 -0.251618
v -0.0411219 -0.16339 -0.251025
v -0.0553821 -0.158909 -0.250495
v -0.0553821 -0.160825 -0.251454
v -0.0859074 -0.149672 -0.251454
v -0.0859074 -0.147756 -0.250495
v -0.0991648 -0.138275 -0.249193
v -0.0991648 -0.141882 -0.250997
v -0.123404 -0.125476 -0.250997
v -0.123404 -0.12187 -0.249193
v -0.132807 -0.106077 -0.245863
v -0.132807 -0.113165 -0.249407
v -0.146784 -0.095965 -0.249871
v -0.146784 -0.0888769 -0.246327
v -0.15988 -0.0653235 -0.243799
v -0.15988 -0.0764369 -0.249356
v -0.169843 -0.0595796 -0.248569
v -0.169843 -0.0484662 -0.243012
v -0.185801 -0.0379958 -0.294034
v 0.190867 -0.0376917 -0.294074
v -0.166584 -0.0772446 -0.296034
v -0.139724 -0.110458 -0.294074
v 0.139724 -0.110458 -0.294074
v -0.0987998 -0.136254 -0.294074
v 0.0987998 -0.136254 -0.294074
v -0.0511426 -0.152469 -0.294074
v 0.0511426 -0.152469 -0.294074
v -5.83606e-009 -0.158 -0.294074
v 0.166584 -0.0772446 -0.296034
v -0.152265 -0.100069 -0.245859
v -0.161173 -0.0890542 -0.246509
v -0.161173 -0.102633 -0.246509
v -0.152265 -0.113648 -0.245859
v -0.1078 -0.134942 -0.245074
v -0.130724 -0.120492 -0.245074
v -0.130724 -0.12677 -0.245074
v -0.1078 -0.141219 -0.245074
v -0.0601426 -0.1549 -0.245074
v -0.0897998 -0.144809 -0.245074
v -0.0897998 -0.148823 -0.245074
v -0.0601426 -0.158914 -0.245074
v -0.00900001 -0.162975 -0.245074
v -0.0421426 -0.15939 -0.245074
v -0.0421426 -0.162495 -0.245074
v -0.00900001 -0.16608 -0.245074
v 0.0421426 -0.15939 -0.245074
v 0.00899999 -0.162975 -0.245074
v 0.00899999 -0.16608 -0.245074
v 0.0421426 -0.162495 -0.245074
v 0.0897998 -0.144809 -0.245074
v 0.0601426 -0.1549 -0.245074
v 0.0601426 -0.158914 -0.245074
v 0.0897998 -0.148823 -0.245074
v 0.130724 -0.120492 -0.245074
v 0.1078 -0.134942 -0.245074
v 0.1078 -0.141219 -0.245074
v 0.130724 -0.12677 -0.245074
v 0.161173 -0.0890542 -0.246509
v 0.152265 -0.100069 -0.245859
v 0.152265 -0.113648 -0.245859
v 0.161173 -0.102633 -0.246509
v 0.177955 -0.0501425 -0.245957
v 0.171614 -0.0604707 -0.246469
v 0.171614 -0.0797939 -0.246469
v 0.177955 -0.0694657 -0.245957
v -0.170463 -0.0535826 -0.246365
v -0.171776 -0.0509007 -0.246229
v -0.171776 -0.0766579 -0.246229
v -0.170463 -0.0793397 -0.246365
vt 3 0
vn 0.669523 0.739255 -0.072395
vn 0.623254 0.724477 -0.294428
vn 0.423244 0.852256 -0.307449
vn 0.461661 0.883011 -0.0846256
vn 0.9974 -0.0155128 -0.0703785
vn 0.924461 0.286396 -0.251692
vn 0.958436 0.283204 -0.0345952
vn 0.999822 0.014251 -0.0123254
vn -0.910969 -0.2137 -0.352801
vn -0.879755 -0.328544 -0.343642
vn -0.908523 -0.270827 0.318179
vn -0.990163 -0.0314649 -0.136335
vn -0.941014 -0.229946 -0.24823
vn -0.998833 0.0405974 -0.0261643
vn -0.990163 -0.0314649 -0.136335
vn -0.289012 -0.192766 -0.937717
vn -0.833357 -0.551001 -0.0437479
vn -0.941014 -0.229946 -0.24823
vn -0.2602 -0.310445 -0.914286
vn -0.674498 -0.737139 -0.0409793
vn -0.833357 -0.551001 -0.0437479
vn -0.289012 -0.192766 -0.937717
vn -0.204277 -0.405152 -0.891136
vn -0.461254 -0.886334 -0.0406978
vn -0.674498 -0.737139 -0.0409793
vn -0.2602 -0.310445 -0.914286
vn -0.106907 -0.454979 -0.884062
vn -0.23448 -0.970886 -0.0489904
vn -0.461254 -0.886334 -0.0406978
vn -0.204277 -0.405152 -0.891136
vn -1.03494e-005 -0.470702 -0.882292
vn -6.31608e-006 -0.998633 -0.0522737
vn -0.23448 -0.970886 -0.0489904
vn -0.106907 -0.454979 -0.884062
vn 0.10656 -0.453579 -0.884823
vn 0.234459 -0.970841 -0.0499705
vn -6.31608e-006 -0.998633 -0.0522737
vn -1.03494e-005 -0.470702 -0.882292
vn 0.203108 -0.402861 -0.892441
vn 0.461215 -0.886268 -0.0425428
vn 0.234459 -0.970841 -0.0499705
vn 0.10656 -0.453579 -0.884823
vn 0.26596 -0.315895 -0.910755
vn 0.675045 -0.737112 -0.0313189
vn 0.461215 -0.886268 -0.0425428
vn 0.203108 -0.402861 -0.892441
vn 0.369678 -0.234171 -0.899168
vn 0.833684 -0.551069 -0.0359683
vn 0.675045 -0.737112 -0.0313189
vn 0.26596 -0.315895 -0.910755
vn 0.928619 -0.245936 -0.277817
vn 0.833684 -0.551069 -0.0359683
vn 0.369678 -0.234171 -0.899168
vn 0.9974 -0.0155128 -0.0703785
vn 0.999822 0.014251 -0.0123254
vn 0.928619 -0.245936 -0.277817
vn -0.6225 -0.104037 -0.775674
vn -0.584234 -0.197895 -0.787089
vn -0.751935 -0.250842 -0.609649
vn -0.78932 -0.133245 -0.599349
vn 0.624489 -0.0982925 -0.774824
vn 0.649803 0.00767861 -0.760064
vn 0.799797 -0.065773 -0.596657
vn 0.774862 -0.201938 -0.599008
vn 0.624489 -0.0982925 -0.774824
vn 0.585794 -0.194339 -0.786815
vn 0.576253 -0.3046 -0.758388
vn 0.623969 -0.230517 -0.746676
vn 0.649803 0.00767861 -0.760064
vn 0.624489 -0.0982925 -0.774824
vn 0.623969 -0.230517 -0.746676
vn 0.647783 -0.162159 -0.744367
vn 0.623969 -0.230517 -0.746676
vn 0.576253 -0.3046 -0.758388
vn -0.0285257 -0.400786 -0.915728
vn -0.0331738 -0.284436 -0.958121
vn 0.647783 -0.162159 -0.744367
vn 0.623969 -0.230517 -0.746676
vn -0.0331738 -0.284436 -0.958121
vn -0.0343601 -0.329296 -0.943601
vn -0.0331738 -0.284436 -0.958121
vn -0.0285257 -0.400786 -0.915728
vn -0.59966 -0.235108 -0.764939
vn -0.642207 -0.0985296 -0.760172
vn -0.0343601 -0.329296 -0.943601
vn -0.0331738 -0.284436 -0.958121
vn -0.642207 -0.0985296 -0.760172
vn -0.668682 -0.0922771 -0.737801
vn -0.642207 -0.0985296 -0.760172
vn -0.59966 -0.235108 -0.764939
vn -0.584234 -0.197895 -0.787089
vn -0.6225 -0.104037 -0.775674
vn -0.668682 -0.0922771 -0.737801
vn -0.642207 -0.0985296 -0.760172
vn -0.6225 -0.104037 -0.775674
vn -0.649291 0.00553733 -0.76052
vn -0.910969 -0.2137 -0.352801
vn -0.990163 -0.0314649 -0.136335
vn -0.806226 0.00216141 -0.591604
vn -0.78932 -0.133245 -0.599349
vn -0.78932 -0.133245 -0.599349
vn -0.751935 -0.250842 -0.609649
vn -0.879755 -0.328544 -0.343642
vn -0.910969 -0.2137 -0.352801
vn 0.774862 -0.201938 -0.599008
vn 0.799797 -0.065773 -0.596657
vn 0.9974 -0.0155128 -0.0703785
vn 0.900339 -0.250473 -0.355883
vn 0.900339 -0.250473 -0.355883
vn 0.875604 -0.313524 -0.367451
vn 0.75121 -0.254328 -0.609099
vn 0.774862 -0.201938 -0.599008
vn -0.682881 -0.444326 0.579869
vn -0.780714 -0.521394 -0.344432
vn -0.603515 -0.711402 -0.360107
vn -0.563524 -0.609877 0.557217
vn -0.563524 -0.609877 0.557217
vn -0.603515 -0.711402 -0.360107
vn -0.401931 -0.84313 -0.357189
vn -0.353029 -0.740393 0.572004
vn -0.353029 -0.740393 0.572004
vn -0.401931 -0.84313 -0.357189
vn -0.201752 -0.912113 -0.356856
vn -0.176641 -0.798469 0.575539
vn -0.176641 -0.798469 0.575539
vn -0.201752 -0.912113 -0.356856
vn -3.10872e-005 -0.933797 -0.357802
vn 3.51794e-006 -0.816868 0.576824
vn 3.51794e-006 -0.816868 0.576824
vn -3.10872e-005 -0.933797 -0.357802
vn 0.20147 -0.911097 -0.359599
vn 0.176621 -0.79835 0.57571
vn 0.176621 -0.79835 0.57571
vn 0.20147 -0.911097 -0.359599
vn 0.401082 -0.841433 -0.362109
vn 0.352942 -0.740199 0.572308
vn 0.352942 -0.740199 0.572308
vn 0.401082 -0.841433 -0.362109
vn 0.606615 -0.712577 -0.352495
vn 0.559403 -0.601991 0.569802
vn 0.559403 -0.601991 0.569802
vn 0.606615 -0.712577 -0.352495
vn 0.766473 -0.538435 -0.350153
vn 0.668884 -0.475216 0.571632
vn 0.875604 -0.313524 -0.367451
vn 0.900339 -0.250473 -0.355883
vn 0.9974 -0.0155128 -0.0703785
vn 0.8391 -0.15768 0.520624
vn 0.490658 -0.614631 -0.617644
vn 0.638188 -0.460795 -0.616753
vn 0.766473 -0.538435 -0.350153
vn 0.606615 -0.712577 -0.352495
vn -0.867399 -0.401248 -0.294312
vn -0.354976 0.676096 0.645667
vn -0.736908 0.502959 0.451663
vn -0.967709 -0.186212 -0.169895
vn -0.592526 -0.73554 -0.328471
vn 0.0331178 0.320413 0.946699
vn -0.354976 0.676096 0.645667
vn -0.867399 -0.401248 -0.294312
vn -0.592526 -0.73554 -0.328471
vn -0.867399 -0.401248 -0.294312
vn -0.651988 -0.709182 -0.268276
vn -0.295926 -0.948439 -0.11354
vn -0.867399 -0.401248 -0.294312
vn -0.967709 -0.186212 -0.169895
vn -0.94308 -0.325899 -0.0662548
vn -0.651988 -0.709182 -0.268276
vn -0.354976 0.676096 0.645667
vn 0.0331178 0.320413 0.946699
vn -0.077257 -0.859701 0.504922
vn 0.00233841 0.00264728 0.999994
vn -0.736908 0.502959 0.451663
vn -0.354976 0.676096 0.645667
vn 0.00233841 0.00264728 0.999994
vn -0.852162 -0.0499086 0.520893
vn 0.0331178 0.320413 0.946699
vn -0.592526 -0.73554 -0.328471
vn -0.295926 -0.948439 -0.11354
vn -0.077257 -0.859701 0.504922
vn -0.967709 -0.186212 -0.169895
vn -0.736908 0.502959 0.451663
vn -0.852162 -0.0499086 0.520893
vn -0.94308 -0.325899 -0.0662548
vn -0.651988 -0.709182 -0.268276
vn -0.674498 -0.737139 -0.0409793
vn -0.461254 -0.886334 -0.0406978
vn -0.295926 -0.948439 -0.11354
vn -0.94308 -0.325899 -0.0662548
vn -0.833357 -0.551001 -0.0437479
vn -0.674498 -0.737139 -0.0409793
vn -0.651988 -0.709182 -0.268276
vn -0.858267 -0.457834 0.231873
vn -0.296641 -0.905439 -0.303618
vn 0.477674 -0.723217 -0.498783
vn -0.634855 0.303052 0.710717
vn -0.634855 0.303052 0.710717
vn 0.477674 -0.723217 -0.498783
vn 0.976935 -0.0235564 -0.212233
vn 0.700333 0.594091 0.395714
vn -0.634855 0.303052 0.710717
vn 0.700333 0.594091 0.395714
vn 0.849176 -0.0670281 0.523839
vn 0.00880034 -0.00430375 0.999952
vn -0.858267 -0.457834 0.231873
vn -0.634855 0.303052 0.710717
vn 0.00880034 -0.00430375 0.999952
vn 0.0936288 -0.860881 0.500117
vn 0.700333 0.594091 0.395714
vn 0.976935 -0.0235564 -0.212233
vn 0.941423 -0.323686 -0.0946081
vn 0.849176 -0.0670281 0.523839
vn 0.976935 -0.0235564 -0.212233
vn 0.477674 -0.723217 -0.498783
vn 0.638067 -0.6926 -0.336416
vn 0.941423 -0.323686 -0.0946081
vn 0.477674 -0.723217 -0.498783
vn -0.296641 -0.905439 -0.303618
vn 0.298798 -0.944047 -0.139628
vn 0.638067 -0.6926 -0.336416
vn -0.296641 -0.905439 -0.303618
vn -0.858267 -0.457834 0.231873
vn 0.0936288 -0.860881 0.500117
vn 0.298798 -0.944047 -0.139628
vn -0.796578 0.411405 0.442955
vn -0.00336267 0.15465 0.987964
vn -0.000525557 0.972242 -0.233977
vn -0.500604 0.855404 -0.132962
vn -0.00336267 0.15465 0.987964
vn 0.732024 0.532327 0.425168
vn 0.43958 0.887239 -0.139919
vn -0.000525557 0.972242 -0.233977
vn -0.798889 0.536397 -0.272132
vn -0.91167 0.31468 -0.264263
vn -0.949637 0.310093 -0.0450863
vn -0.842102 0.536861 -0.0514196
vn -0.669971 0.739779 -0.0621829
vn -0.625718 0.72738 -0.281771
vn -0.798889 0.536397 -0.272132
vn -0.842102 0.536861 -0.0514196
vn -0.461979 0.883606 -0.0762619
vn -0.424758 0.855203 -0.296999
vn -0.625718 0.72738 -0.281771
vn -0.669971 0.739779 -0.0621829
vn -0.234901 0.968078 -0.0874391
vn -0.213645 0.926716 -0.309116
vn -0.424758 0.855203 -0.296999
vn -0.461979 0.883606 -0.0762619
vn -1.9722e-005 0.995655 -0.0931229
vn -5.65827e-005 0.948918 -0.315524
vn -0.213645 0.926716 -0.309116
vn -0.234901 0.968078 -0.0874391
vn 0.234773 0.967677 -0.0921077
vn 0.213122 0.92487 -0.31495
vn -5.65827e-005 0.948918 -0.315524
vn -1.9722e-005 0.995655 -0.0931229
vn 0.461661 0.883011 -0.0846256
vn 0.423244 0.852256 -0.307449
vn 0.213122 0.92487 -0.31495
vn 0.234773 0.967677 -0.0921077
vn 0.329794 -0.716292 -0.614949
vn 0.490658 -0.614631 -0.617644
vn 0.606615 -0.712577 -0.352495
vn 0.401082 -0.841433 -0.362109
vn 0.165129 -0.773234 -0.612243
vn 0.329794 -0.716292 -0.614949
vn 0.401082 -0.841433 -0.362109
vn 0.20147 -0.911097 -0.359599
vn 4.96304e-006 -0.791751 -0.610844
vn 0.165129 -0.773234 -0.612243
vn 0.20147 -0.911097 -0.359599
vn -3.10872e-005 -0.933797 -0.357802
vn -0.165315 -0.774031 -0.611185
vn 4.96304e-006 -0.791751 -0.610844
vn -3.10872e-005 -0.933797 -0.357802
vn -0.201752 -0.912113 -0.356856
vn -0.330495 -0.71764 -0.612997
vn -0.165315 -0.774031 -0.611185
vn -0.201752 -0.912113 -0.356856
vn -0.401931 -0.84313 -0.357189
vn -0.491941 -0.616049 -0.615206
vn -0.330495 -0.71764 -0.612997
vn -0.401931 -0.84313 -0.357189
vn -0.603515 -0.711402 -0.360107
vn -0.63907 -0.461288 -0.61547
vn -0.491941 -0.616049 -0.615206
vn -0.603515 -0.711402 -0.360107
vn -0.780714 -0.521394 -0.344432
vn -0.786861 0.269992 -0.554936
vn -0.806226 0.00216141 -0.591604
vn -0.990163 -0.0314649 -0.136335
vn -0.91167 0.31468 -0.264263
vn -0.697697 0.510899 -0.502196
vn -0.786861 0.269992 -0.554936
vn -0.91167 0.31468 -0.264263
vn -0.798889 0.536397 -0.272132
vn -0.625718 0.72738 -0.281771
vn -0.555305 0.704444 -0.442036
vn -0.697697 0.510899 -0.502196
vn -0.798889 0.536397 -0.272132
vn -0.424758 0.855203 -0.296999
vn -0.381737 0.83896 -0.387843
vn -0.555305 0.704444 -0.442036
vn -0.625718 0.72738 -0.281771
vn -0.213645 0.926716 -0.309116
vn -0.193466 0.916266 -0.350752
vn -0.381737 0.83896 -0.387843
vn -0.424758 0.855203 -0.296999
vn -5.65827e-005 0.948918 -0.315524
vn 1.334e-006 0.941419 -0.337239
vn -0.193466 0.916266 -0.350752
vn -0.213645 0.926716 -0.309116
vn 0.213122 0.92487 -0.31495
vn 0.193565 0.916752 -0.349425
vn 1.334e-006 0.941419 -0.337239
vn -5.65827e-005 0.948918 -0.315524
vn 0.423244 0.852256 -0.307449
vn 0.382033 0.839694 -0.385959
vn 0.193565 0.916752 -0.349425
vn 0.213122 0.92487 -0.31495
vn 0.555619 0.70501 -0.440737
vn 0.526612 0.6806 -0.509376
vn 0.37269 0.832316 -0.410308
vn 0.382033 0.839694 -0.385959
vn 0.697748 0.511213 -0.501806
vn 0.630457 0.472383 -0.615936
vn 0.526612 0.6806 -0.509376
vn 0.555619 0.70501 -0.440737
vn 0.787679 0.267388 -0.555037
vn 0.669896 0.235302 -0.704182
vn 0.630457 0.472383 -0.615936
vn 0.697748 0.511213 -0.501806
vn 0.799797 -0.065773 -0.596657
vn 0.649803 0.00767861 -0.760064
vn 0.669896 0.235302 -0.704182
vn 0.787679 0.267388 -0.555037
vn 0.384115 -0.49168 -0.781477
vn 0.492853 -0.363804 -0.790407
vn 0.638188 -0.460795 -0.616753
vn 0.490658 -0.614631 -0.617644
vn 0.261359 -0.580002 -0.77155
vn 0.384115 -0.49168 -0.781477
vn 0.490658 -0.614631 -0.617644
vn 0.329794 -0.716292 -0.614949
vn 0.132041 -0.631459 -0.764085
vn 0.261359 -0.580002 -0.77155
vn 0.329794 -0.716292 -0.614949
vn 0.165129 -0.773234 -0.612243
vn 8.40358e-005 -0.647324 -0.762215
vn 0.132041 -0.631459 -0.764085
vn 0.165129 -0.773234 -0.612243
vn 4.96304e-006 -0.791751 -0.610844
vn -0.131251 -0.628433 -0.76671
vn 8.40358e-005 -0.647324 -0.762215
vn 4.96304e-006 -0.791751 -0.610844
vn -0.165315 -0.774031 -0.611185
vn -0.258998 -0.575025 -0.776058
vn -0.131251 -0.628433 -0.76671
vn -0.165315 -0.774031 -0.611185
vn -0.330495 -0.71764 -0.612997
vn -0.380062 -0.486529 -0.786665
vn -0.258998 -0.575025 -0.776058
vn -0.330495 -0.71764 -0.612997
vn -0.491941 -0.616049 -0.615206
vn -0.490442 -0.36143 -0.792991
vn -0.380062 -0.486529 -0.786665
vn -0.491941 -0.616049 -0.615206
vn -0.63907 -0.461288 -0.61547
vn -0.6225 -0.104037 -0.775674
vn -0.78932 -0.133245 -0.599349
vn -0.806226 0.00216141 -0.591604
vn -0.649291 0.00553733 -0.76052
vn -0.669896 0.235302 -0.704182
vn -0.649291 0.00553733 -0.76052
vn -0.806226 0.00216141 -0.591604
vn -0.786861 0.269992 -0.554936
vn -0.627047 0.469083 -0.621911
vn -0.669896 0.235302 -0.704182
vn -0.786861 0.269992 -0.554936
vn -0.697697 0.510899 -0.502196
vn -0.555305 0.704444 -0.442036
vn -0.521509 0.674165 -0.523001
vn -0.627047 0.469083 -0.621911
vn -0.697697 0.510899 -0.502196
vn -0.381737 0.83896 -0.387843
vn -0.370036 0.826829 -0.423588
vn -0.521509 0.674165 -0.523001
vn -0.555305 0.704444 -0.442036
vn -0.193466 0.916266 -0.350752
vn -0.190555 0.91654 -0.351629
vn -0.370036 0.826829 -0.423588
vn -0.381737 0.83896 -0.387843
vn 1.334e-006 0.941419 -0.337239
vn 7.59377e-005 0.946417 -0.322946
vn -0.190555 0.91654 -0.351629
vn -0.193466 0.916266 -0.350752
vn 0.193565 0.916752 -0.349425
vn 0.191333 0.919449 -0.34352
vn 7.59377e-005 0.946417 -0.322946
vn 1.334e-006 0.941419 -0.337239
vn 0.382033 0.839694 -0.385959
vn 0.37269 0.832316 -0.410308
vn 0.191333 0.919449 -0.34352
vn 0.193565 0.916752 -0.349425
vn 0.526612 0.6806 -0.509376
vn 0.754262 0.207234 -0.623011
vn 0.547086 0.722809 -0.42219
vn 0.37269 0.832316 -0.410308
vn 0.630457 0.472383 -0.615936
vn 0.722516 0.0420605 -0.690073
vn 0.754262 0.207234 -0.623011
vn 0.526612 0.6806 -0.509376
vn 0.669896 0.235302 -0.704182
vn 0.684921 -0.0426114 -0.727371
vn 0.722516 0.0420605 -0.690073
vn 0.630457 0.472383 -0.615936
vn 0.649803 0.00767861 -0.760064
vn 0.647783 -0.162159 -0.744367
vn 0.684921 -0.0426114 -0.727371
vn 0.669896 0.235302 -0.704182
vn 0.417769 -0.524009 -0.742216
vn 0.492516 -0.429771 -0.756786
vn 0.492853 -0.363804 -0.790407
vn 0.384115 -0.49168 -0.781477
vn 0.297353 -0.650286 -0.699077
vn 0.417769 -0.524009 -0.742216
vn 0.384115 -0.49168 -0.781477
vn 0.261359 -0.580002 -0.77155
vn 0.163533 -0.717923 -0.676641
vn 0.297353 -0.650286 -0.699077
vn 0.261359 -0.580002 -0.77155
vn 0.132041 -0.631459 -0.764085
vn -0.0198882 -0.736371 -0.676286
vn 0.163533 -0.717923 -0.676641
vn 0.132041 -0.631459 -0.764085
vn 8.40358e-005 -0.647324 -0.762215
vn -0.18898 -0.689355 -0.69934
vn -0.0198882 -0.736371 -0.676286
vn 8.40358e-005 -0.647324 -0.762215
vn -0.131251 -0.628433 -0.76671
vn -0.313219 -0.625426 -0.714658
vn -0.18898 -0.689355 -0.69934
vn -0.131251 -0.628433 -0.76671
vn -0.258998 -0.575025 -0.776058
vn -0.421556 -0.519817 -0.743021
vn -0.313219 -0.625426 -0.714658
vn -0.258998 -0.575025 -0.776058
vn -0.380062 -0.486529 -0.786665
vn -0.507962 -0.423494 -0.750085
vn -0.421556 -0.519817 -0.743021
vn -0.380062 -0.486529 -0.786665
vn -0.490442 -0.36143 -0.792991
vn -0.717852 -0.0295075 -0.69557
vn -0.668682 -0.0922771 -0.737801
vn -0.649291 0.00553733 -0.76052
vn -0.669896 0.235302 -0.704182
vn -0.766088 0.0694288 -0.638975
vn -0.717852 -0.0295075 -0.69557
vn -0.669896 0.235302 -0.704182
vn -0.627047 0.469083 -0.621911
vn -0.521509 0.674165 -0.523001
vn -0.797681 0.236167 -0.554914
vn -0.766088 0.0694288 -0.638975
vn -0.627047 0.469083 -0.621911
vn -0.370036 0.826829 -0.423588
vn -0.589415 0.704738 -0.394885
vn -0.797681 0.236167 -0.554914
vn -0.521509 0.674165 -0.523001
vn -0.190555 0.91654 -0.351629
vn -0.251926 0.923925 -0.287916
vn -0.589415 0.704738 -0.394885
vn -0.370036 0.826829 -0.423588
vn 7.59377e-005 0.946417 -0.322946
vn -0.030105 0.975007 -0.220123
vn -0.251926 0.923925 -0.287916
vn -0.190555 0.91654 -0.351629
vn 0.191333 0.919449 -0.34352
vn 0.213224 0.940095 -0.266001
vn -0.030105 0.975007 -0.220123
vn 7.59377e-005 0.946417 -0.322946
vn 0.37269 0.832316 -0.410308
vn 0.547086 0.722809 -0.42219
vn 0.213224 0.940095 -0.266001
vn 0.191333 0.919449 -0.34352
vn -0.0842187 -0.493086 -0.865894
vn -0.797681 0.236167 -0.554914
vn -0.589415 0.704738 -0.394885
vn -0.101683 0.830517 -0.547634
vn -0.101683 0.830517 -0.547634
vn 0.547086 0.722809 -0.42219
vn 0.754262 0.207234 -0.623011
vn -0.0842187 -0.493086 -0.865894
vn -0.069904 -0.515645 -0.853946
vn -0.766088 0.0694288 -0.638975
vn -0.797681 0.236167 -0.554914
vn -0.0842187 -0.493086 -0.865894
vn -0.0842187 -0.493086 -0.865894
vn 0.754262 0.207234 -0.623011
vn 0.722516 0.0420605 -0.690073
vn -0.069904 -0.515645 -0.853946
vn -0.0455629 -0.401568 -0.914695
vn -0.717852 -0.0295075 -0.69557
vn -0.766088 0.0694288 -0.638975
vn -0.069904 -0.515645 -0.853946
vn -0.069904 -0.515645 -0.853946
vn 0.722516 0.0420605 -0.690073
vn 0.684921 -0.0426114 -0.727371
vn -0.0455629 -0.401568 -0.914695
vn -0.0343601 -0.329296 -0.943601
vn -0.668682 -0.0922771 -0.737801
vn -0.717852 -0.0295075 -0.69557
vn -0.0455629 -0.401568 -0.914695
vn -0.0455629 -0.401568 -0.914695
vn 0.684921 -0.0426114 -0.727371
vn 0.647783 -0.162159 -0.744367
vn -0.0343601 -0.329296 -0.943601
vn -0.0192078 -0.530926 -0.847201
vn 0.492516 -0.429771 -0.756786
vn 0.417769 -0.524009 -0.742216
vn -0.00647684 -0.578173 -0.815889
vn -0.00647684 -0.578173 -0.815889
vn -0.421556 -0.519817 -0.743021
vn -0.507962 -0.423494 -0.750085
vn -0.0192078 -0.530926 -0.847201
vn -0.00647684 -0.578173 -0.815889
vn 0.417769 -0.524009 -0.742216
vn 0.297353 -0.650286 -0.699077
vn -0.0198533 -0.695682 -0.718075
vn -0.0198533 -0.695682 -0.718075
vn -0.313219 -0.625426 -0.714658
vn -0.421556 -0.519817 -0.743021
vn -0.00647684 -0.578173 -0.815889
vn -0.0198533 -0.695682 -0.718075
vn -0.0198882 -0.736371 -0.676286
vn -0.18898 -0.689355 -0.69934
vn -0.313219 -0.625426 -0.714658
vn 0.297353 -0.650286 -0.699077
vn 0.163533 -0.717923 -0.676641
vn -0.0198882 -0.736371 -0.676286
vn -0.0198533 -0.695682 -0.718075
vn -0.030105 0.975007 -0.220123
vn 0.213224 0.940095 -0.266001
vn 0.547086 0.722809 -0.42219
vn -0.101683 0.830517 -0.547634
vn -0.251926 0.923925 -0.287916
vn -0.030105 0.975007 -0.220123
vn -0.101683 0.830517 -0.547634
vn -0.589415 0.704738 -0.394885
vn 0.408502 0.89083 0.198866
vn 0.602303 0.762256 0.237057
vn 0.66457 0.703941 0.250629
vn 0.462994 0.849468 0.253062
vn 0.602303 0.762256 0.237057
vn 0.770417 0.566298 0.292856
vn 0.82629 0.505334 0.248762
vn 0.66457 0.703941 0.250629
vn 0.770417 0.566298 0.292856
vn 0.882707 0.30321 0.359016
vn 0.931756 0.264532 0.248702
vn 0.82629 0.505334 0.248762
vn 0.882707 0.30321 0.359016
vn 0.908224 0.00221152 0.418479
vn 0.967891 0.000188104 0.251372
vn 0.931756 0.264532 0.248702
vn 0.908224 0.00221152 0.418479
vn 0.842542 -0.284657 0.457267
vn 0.929802 -0.263584 0.256887
vn 0.967891 0.000188104 0.251372
vn 0.842542 -0.284657 0.457267
vn 0.711268 -0.51777 0.475407
vn 0.849176 -0.0670281 0.523839
vn 0.929802 -0.263584 0.256887
vn 0.849176 -0.0670281 0.523839
vn 0.711268 -0.51777 0.475407
vn 0.545585 -0.685998 0.481398
vn 0.00880034 -0.00430375 0.999952
vn 0.00880034 -0.00430375 0.999952
vn 0.545585 -0.685998 0.481398
vn 0.366369 -0.795666 0.48238
vn 0.0936288 -0.860881 0.500117
vn 0.0936288 -0.860881 0.500117
vn 0.366369 -0.795666 0.48238
vn 0.183448 -0.857007 0.481546
vn 0.23491 -0.928224 0.288476
vn 0.23491 -0.928224 0.288476
vn 0.183448 -0.857007 0.481546
vn -3.46219e-005 -0.877088 0.48033
vn -2.19501e-005 -0.957357 0.288909
vn -2.19501e-005 -0.957357 0.288909
vn -3.46219e-005 -0.877088 0.48033
vn -0.183791 -0.858309 0.479089
vn -0.235069 -0.928723 0.286733
vn -0.235069 -0.928723 0.286733
vn -0.183791 -0.858309 0.479089
vn -0.367511 -0.798134 0.477408
vn -0.077257 -0.859701 0.504922
vn -0.077257 -0.859701 0.504922
vn -0.367511 -0.798134 0.477408
vn -0.548031 -0.689349 0.473771
vn 0.00233841 0.00264728 0.999994
vn 0.00233841 0.00264728 0.999994
vn -0.548031 -0.689349 0.473771
vn -0.715624 -0.521628 0.464528
vn -0.852162 -0.0499086 0.520893
vn -0.852162 -0.0499086 0.520893
vn -0.715624 -0.521628 0.464528
vn -0.849247 -0.287619 0.442781
vn -0.927552 -0.262966 0.265512
vn -0.927552 -0.262966 0.265512
vn -0.849247 -0.287619 0.442781
vn -0.91609 0.00205502 0.400968
vn -0.965123 0.00018397 0.261796
vn -0.965123 0.00018397 0.261796
vn -0.91609 0.00205502 0.400968
vn -0.889178 0.305633 0.340515
vn -0.928882 0.263731 0.260046
vn -0.928882 0.263731 0.260046
vn -0.889178 0.305633 0.340515
vn -0.773949 0.569248 0.277417
vn -0.824454 0.504483 0.256463
vn -0.773949 0.569248 0.277417
vn -0.60388 0.764208 0.226531
vn -0.664016 0.703423 0.253535
vn -0.824454 0.504483 0.256463
vn -0.60388 0.764208 0.226531
vn -0.409125 0.892018 0.192149
vn -0.462815 0.849157 0.254429
vn -0.664016 0.703423 0.253535
vn -0.409125 0.892018 0.192149
vn -0.205702 0.963027 0.173968
vn -0.518619 0.655481 0.548981
vn -0.462815 0.849157 0.254429
vn -0.205702 0.963027 0.173968
vn -1.53136e-005 0.985556 0.169348
vn -2.71437e-005 0.318695 0.947857
vn -0.518619 0.655481 0.548981
vn -1.53136e-005 0.985556 0.169348
vn 0.205533 0.962468 0.177233
vn 0.520456 0.653651 0.549423
vn -2.71437e-005 0.318695 0.947857
vn 0.205533 0.962468 0.177233
vn 0.408502 0.89083 0.198866
vn 0.462994 0.849468 0.253062
vn 0.520456 0.653651 0.549423
vn 0.314896 0.768559 -0.556918
vn 0.518112 0.719624 -0.462279
vn 0.602303 0.762256 0.237057
vn 0.408502 0.89083 0.198866
vn 0.518112 0.719624 -0.462279
vn 0.760042 0.595945 -0.2592
vn 0.770417 0.566298 0.292856
vn 0.602303 0.762256 0.237057
vn 0.760042 0.595945 -0.2592
vn 0.936459 0.341735 0.0791326
vn 0.882707 0.30321 0.359016
vn 0.770417 0.566298 0.292856
vn 0.936459 0.341735 0.0791326
vn 0.925514 0.00706449 0.378648
vn 0.908224 0.00221152 0.418479
vn 0.882707 0.30321 0.359016
vn 0.925514 0.00706449 0.378648
vn 0.813638 -0.297394 0.49955
vn 0.842542 -0.284657 0.457267
vn 0.908224 0.00221152 0.418479
vn 0.813638 -0.297394 0.49955
vn 0.710729 -0.568878 0.413815
vn 0.711268 -0.51777 0.475407
vn 0.842542 -0.284657 0.457267
vn 0.711268 -0.51777 0.475407
vn 0.710729 -0.568878 0.413815
vn 0.576418 -0.786888 0.220339
vn 0.545585 -0.685998 0.481398
vn 0.545585 -0.685998 0.481398
vn 0.576418 -0.786888 0.220339
vn 0.389521 -0.918393 0.0694801
vn 0.366369 -0.795666 0.48238
vn 0.366369 -0.795666 0.48238
vn 0.389521 -0.918393 0.0694801
vn 0.192497 -0.981135 -0.0178516
vn 0.183448 -0.857007 0.481546
vn 0.183448 -0.857007 0.481546
vn 0.192497 -0.981135 -0.0178516
vn -0.000808402 -0.999635 -0.0270203
vn -3.46219e-005 -0.877088 0.48033
vn -3.46219e-005 -0.877088 0.48033
vn -0.000808402 -0.999635 -0.0270203
vn -0.19374 -0.980081 0.043659
vn -0.183791 -0.858309 0.479089
vn -0.183791 -0.858309 0.479089
vn -0.19374 -0.980081 0.043659
vn -0.382583 -0.904131 0.190203
vn -0.367511 -0.798134 0.477408
vn -0.367511 -0.798134 0.477408
vn -0.382583 -0.904131 0.190203
vn -0.547443 -0.754277 0.362453
vn -0.548031 -0.689349 0.473771
vn -0.548031 -0.689349 0.473771
vn -0.547443 -0.754277 0.362453
vn -0.683966 -0.546495 0.483253
vn -0.715624 -0.521628 0.464528
vn -0.715624 -0.521628 0.464528
vn -0.683966 -0.546495 0.483253
vn -0.80962 -0.296761 0.506408
vn -0.849247 -0.287619 0.442781
vn -0.849247 -0.287619 0.442781
vn -0.80962 -0.296761 0.506408
vn -0.920813 0.00764493 0.38993
vn -0.91609 0.00205502 0.400968
vn -0.91609 0.00205502 0.400968
vn -0.920813 0.00764493 0.38993
vn -0.934957 0.343086 0.0902581
vn -0.889178 0.305633 0.340515
vn -0.889178 0.305633 0.340515
vn -0.934957 0.343086 0.0902581
vn -0.765711 0.602552 -0.224984
vn -0.773949 0.569248 0.277417
vn -0.765711 0.602552 -0.224984
vn -0.534427 0.735001 -0.417326
vn -0.60388 0.764208 0.226531
vn -0.773949 0.569248 0.277417
vn -0.534427 0.735001 -0.417326
vn -0.321762 0.779325 -0.5377
vn -0.409125 0.892018 0.192149
vn -0.60388 0.764208 0.226531
vn -0.321762 0.779325 -0.5377
vn -0.150505 0.792153 -0.591474
vn -0.205702 0.963027 0.173968
vn -0.409125 0.892018 0.192149
vn -0.150505 0.792153 -0.591474
vn -0.00155159 0.786352 -0.617777
vn -1.53136e-005 0.985556 0.169348
vn -0.205702 0.963027 0.173968
vn -0.00155159 0.786352 -0.617777
vn 0.148322 0.780211 -0.607677
vn 0.205533 0.962468 0.177233
vn -1.53136e-005 0.985556 0.169348
vn 0.148322 0.780211 -0.607677
vn 0.314896 0.768559 -0.556918
vn 0.408502 0.89083 0.198866
vn 0.205533 0.962468 0.177233
vn 0.614048 0.501191 -0.609714
vn 0.774719 0.423804 -0.469256
vn 0.518112 0.719624 -0.462279
vn 0.314896 0.768559 -0.556918
vn 0.774719 0.423804 -0.469256
vn 0.90692 0.340497 -0.248108
vn 0.760042 0.595945 -0.2592
vn 0.518112 0.719624 -0.462279
vn 0.90692 0.340497 -0.248108
vn 0.978506 0.195108 0.0667741
vn 0.936459 0.341735 0.0791326
vn 0.760042 0.595945 -0.2592
vn 0.978506 0.195108 0.0667741
vn 0.945452 0.00503122 0.325722
vn 0.925514 0.00706449 0.378648
vn 0.936459 0.341735 0.0791326
vn 0.945452 0.00503122 0.325722
vn 0.891056 -0.176179 0.418306
vn 0.813638 -0.297394 0.49955
vn 0.925514 0.00706449 0.378648
vn 0.891056 -0.176179 0.418306
vn 0.884477 -0.37354 0.279586
vn 0.710729 -0.568878 0.413815
vn 0.813638 -0.297394 0.49955
vn 0.710729 -0.568878 0.413815
vn 0.884477 -0.37354 0.279586
vn 0.827306 -0.561731 -0.00481801
vn 0.576418 -0.786888 0.220339
vn 0.576418 -0.786888 0.220339
vn 0.827306 -0.561731 -0.00481801
vn 0.623193 -0.676784 -0.39191
vn 0.389521 -0.918393 0.0694801
vn 0.389521 -0.918393 0.0694801
vn 0.623193 -0.676784 -0.39191
vn 0.295423 -0.682596 -0.668422
vn 0.192497 -0.981135 -0.0178516
vn 0.192497 -0.981135 -0.0178516
vn 0.295423 -0.682596 -0.668422
vn -0.00359148 -0.711952 -0.702219
vn -0.000808402 -0.999635 -0.0270203
vn -0.000808402 -0.999635 -0.0270203
vn -0.00359148 -0.711952 -0.702219
vn -0.398506 -0.811299 -0.427769
vn -0.19374 -0.980081 0.043659
vn -0.19374 -0.980081 0.043659
vn -0.398506 -0.811299 -0.427769
vn -0.681147 -0.731127 0.0386383
vn -0.382583 -0.904131 0.190203
vn -0.382583 -0.904131 0.190203
vn -0.681147 -0.731127 0.0386383
vn -0.78068 -0.538594 0.316946
vn -0.547443 -0.754277 0.362453
vn -0.547443 -0.754277 0.362453
vn -0.78068 -0.538594 0.316946
vn -0.806034 -0.340108 0.484391
vn -0.683966 -0.546495 0.483253
vn -0.683966 -0.546495 0.483253
vn -0.806034 -0.340108 0.484391
vn -0.829894 -0.166497 0.532498
vn -0.80962 -0.296761 0.506408
vn -0.80962 -0.296761 0.506408
vn -0.829894 -0.166497 0.532498
vn -0.891725 0.00579551 0.452541
vn -0.920813 0.00764493 0.38993
vn -0.920813 0.00764493 0.38993
vn -0.891725 0.00579551 0.452541
vn -0.957654 0.198247 0.208802
vn -0.934957 0.343086 0.0902581
vn -0.934957 0.343086 0.0902581
vn -0.957654 0.198247 0.208802
vn -0.925753 0.3722 -0.0666971
vn -0.765711 0.602552 -0.224984
vn -0.925753 0.3722 -0.0666971
vn -0.831404 0.488731 -0.264403
vn -0.534427 0.735001 -0.417326
vn -0.765711 0.602552 -0.224984
vn -0.831404 0.488731 -0.264403
vn -0.680607 0.577003 -0.451489
vn -0.321762 0.779325 -0.5377
vn -0.534427 0.735001 -0.417326
vn -0.680607 0.577003 -0.451489
vn -0.56735 0.599863 -0.564162
vn -0.150505 0.792153 -0.591474
vn -0.321762 0.779325 -0.5377
vn -0.56735 0.599863 -0.564162
vn -0.00500906 0.625058 -0.780562
vn -0.00155159 0.786352 -0.617777
vn -0.150505 0.792153 -0.591474
vn -0.00500906 0.625058 -0.780562
vn 0.512696 0.511116 -0.689857
vn 0.148322 0.780211 -0.607677
vn -0.00155159 0.786352 -0.617777
vn 0.512696 0.511116 -0.689857
vn 0.614048 0.501191 -0.609714
vn 0.314896 0.768559 -0.556918
vn 0.148322 0.780211 -0.607677
vn 0.923495 0.375936 -0.0763459
vn 0.967426 0.225466 0.11512
vn 0.774719 0.423804 -0.469256
vn 0.614048 0.501191 -0.609714
vn 0.967426 0.225466 0.11512
vn 0.968373 0.129653 0.213174
vn 0.90692 0.340497 -0.248108
vn 0.774719 0.423804 -0.469256
vn 0.968373 0.129653 0.213174
vn 0.960979 0.0594918 0.270148
vn 0.978506 0.195108 0.0667741
vn 0.90692 0.340497 -0.248108
vn 0.960979 0.0594918 0.270148
vn 0.957231 2.93321e-005 0.289325
vn 0.945452 0.00503122 0.325722
vn 0.978506 0.195108 0.0667741
vn 0.957231 2.93321e-005 0.289325
vn 0.960947 -0.059297 0.270306
vn 0.891056 -0.176179 0.418306
vn 0.945452 0.00503122 0.325722
vn 0.960947 -0.059297 0.270306
vn 0.97622 -0.130531 0.173078
vn 0.884477 -0.37354 0.279586
vn 0.891056 -0.176179 0.418306
vn 0.884477 -0.37354 0.279586
vn 0.97622 -0.130531 0.173078
vn 0.974029 -0.226357 0.00546667
vn 0.827306 -0.561731 -0.00481801
vn 0.827306 -0.561731 -0.00481801
vn 0.974029 -0.226357 0.00546667
vn 0.937739 -0.282919 -0.201503
vn 0.623193 -0.676784 -0.39191
vn 0.623193 -0.676784 -0.39191
vn 0.937739 -0.282919 -0.201503
vn 0.682671 -0.541162 -0.491024
vn 0.295423 -0.682596 -0.668422
vn 0.295423 -0.682596 -0.668422
vn 0.682671 -0.541162 -0.491024
vn -0.0165562 -0.791369 -0.611115
vn -0.00359148 -0.711952 -0.702219
vn -0.00359148 -0.711952 -0.702219
vn -0.0165562 -0.791369 -0.611115
vn -0.74419 -0.575138 -0.339701
vn -0.398506 -0.811299 -0.427769
vn -0.398506 -0.811299 -0.427769
vn -0.74419 -0.575138 -0.339701
vn -0.946612 -0.315884 -0.0643671
vn -0.681147 -0.731127 0.0386383
vn -0.681147 -0.731127 0.0386383
vn -0.946612 -0.315884 -0.0643671
vn -0.973039 -0.225594 0.0479832
vn -0.78068 -0.538594 0.316946
vn -0.78068 -0.538594 0.316946
vn -0.973039 -0.225594 0.0479832
vn -0.977973 -0.128766 0.164283
vn -0.806034 -0.340108 0.484391
vn -0.806034 -0.340108 0.484391
vn -0.977973 -0.128766 0.164283
vn -0.97247 -0.0589175 0.225456
vn -0.829894 -0.166497 0.532498
vn -0.829894 -0.166497 0.532498
vn -0.97247 -0.0589175 0.225456
vn -0.969508 6.59818e-005 0.245059
vn -0.891725 0.00579551 0.452541
vn -0.891725 0.00579551 0.452541
vn -0.969508 6.59818e-005 0.245059
vn -0.971809 0.0591263 0.228237
vn -0.957654 0.198247 0.208802
vn -0.957654 0.198247 0.208802
vn -0.971809 0.0591263 0.228237
vn -0.970187 0.127443 0.206145
vn -0.925753 0.3722 -0.0666971
vn -0.970187 0.127443 0.206145
vn -0.962864 0.22214 0.153452
vn -0.831404 0.488731 -0.264403
vn -0.925753 0.3722 -0.0666971
vn -0.962864 0.22214 0.153452
vn -0.925474 0.378308 0.0195423
vn -0.680607 0.577003 -0.451489
vn -0.831404 0.488731 -0.264403
vn -0.925474 0.378308 0.0195423
vn -0.90184 0.420883 -0.0976823
vn -0.56735 0.599863 -0.564162
vn -0.680607 0.577003 -0.451489
vn -0.90184 0.420883 -0.0976823
vn -0.0412836 0.91479 -0.401815
vn -0.00500906 0.625058 -0.780562
vn -0.56735 0.599863 -0.564162
vn -0.0412836 0.91479 -0.401815
vn 0.863025 0.455835 -0.217722
vn 0.512696 0.511116 -0.689857
vn -0.00500906 0.625058 -0.780562
vn 0.863025 0.455835 -0.217722
vn 0.923495 0.375936 -0.0763459
vn 0.614048 0.501191 -0.609714
vn 0.512696 0.511116 -0.689857
vn 0.981745 -0.0101019 0.189931
vn 0.809375 -0.147678 0.568422
vn 0.967426 0.225466 0.11512
vn 0.923495 0.375936 -0.0763459
vn 0.809375 -0.147678 0.568422
vn 0.824155 0.0268645 0.565727
vn 0.968373 0.129653 0.213174
vn 0.967426 0.225466 0.11512
vn 0.824155 0.0268645 0.565727
vn 0.800784 0.014785 0.59877
vn 0.960979 0.0594918 0.270148
vn 0.968373 0.129653 0.213174
vn 0.800784 0.014785 0.59877
vn 0.85064 0.0465318 0.523686
vn 0.957231 2.93321e-005 0.289325
vn 0.960979 0.0594918 0.270148
vn 0.85064 0.0465318 0.523686
vn 0.917653 0.046098 0.3947
vn 0.960947 -0.059297 0.270306
vn 0.957231 2.93321e-005 0.289325
vn 0.917653 0.046098 0.3947
vn 0.973517 0.0423016 0.224665
vn 0.97622 -0.130531 0.173078
vn 0.960947 -0.059297 0.270306
vn 0.97622 -0.130531 0.173078
vn 0.973517 0.0423016 0.224665
vn 0.997973 -0.00428635 0.0634893
vn 0.974029 -0.226357 0.00546667
vn 0.974029 -0.226357 0.00546667
vn 0.997973 -0.00428635 0.0634893
vn 0.997148 -0.0509673 0.0556664
vn 0.937739 -0.282919 -0.201503
vn 0.937739 -0.282919 -0.201503
vn 0.997148 -0.0509673 0.0556664
vn 0.932684 -0.359858 0.0245577
vn 0.682671 -0.541162 -0.491024
vn 0.682671 -0.541162 -0.491024
vn 0.932684 -0.359858 0.0245577
vn -0.00830078 -0.994439 -0.104987
vn -0.0165562 -0.791369 -0.611115
vn -0.0165562 -0.791369 -0.611115
vn -0.00830078 -0.994439 -0.104987
vn -0.902708 -0.41529 -0.112479
vn -0.74419 -0.575138 -0.339701
vn -0.74419 -0.575138 -0.339701
vn -0.902708 -0.41529 -0.112479
vn -0.994036 -0.072383 -0.0815604
vn -0.946612 -0.315884 -0.0643671
vn -0.946612 -0.315884 -0.0643671
vn -0.994036 -0.072383 -0.0815604
vn -0.994963 0.0923067 0.0391038
vn -0.973039 -0.225594 0.0479832
vn -0.973039 -0.225594 0.0479832
vn -0.994963 0.0923067 0.0391038
vn -0.960935 0.13789 0.239981
vn -0.977973 -0.128766 0.164283
vn -0.977973 -0.128766 0.164283
vn -0.960935 0.13789 0.239981
vn -0.916044 0.0861798 0.391711
vn -0.97247 -0.0589175 0.225456
vn -0.97247 -0.0589175 0.225456
vn -0.916044 0.0861798 0.391711
vn -0.872812 0.0604114 0.484304
vn -0.969508 6.59818e-005 0.245059
vn -0.969508 6.59818e-005 0.245059
vn -0.872812 0.0604114 0.484304
vn -0.888871 0.023527 0.457553
vn -0.971809 0.0591263 0.228237
vn -0.971809 0.0591263 0.228237
vn -0.888871 0.023527 0.457553
vn -0.921976 0.0328703 0.38585
vn -0.970187 0.127443 0.206145
vn -0.921976 0.0328703 0.38585
vn -0.972337 0.00168039 0.233574
vn -0.962864 0.22214 0.153452
vn -0.970187 0.127443 0.206145
vn -0.972337 0.00168039 0.233574
vn -0.996585 0.0825245 -0.0027323
vn -0.925474 0.378308 0.0195423
vn -0.962864 0.22214 0.153452
vn -0.996585 0.0825245 -0.0027323
vn -0.969187 0.206347 -0.134525
vn -0.90184 0.420883 -0.0976823
vn -0.925474 0.378308 0.0195423
vn -0.969187 0.206347 -0.134525
vn -0.0829024 0.899288 -0.429429
vn -0.0412836 0.91479 -0.401815
vn -0.90184 0.420883 -0.0976823
vn -0.0829024 0.899288 -0.429429
vn 0.937962 0.32006 -0.133373
vn 0.863025 0.455835 -0.217722
vn -0.0412836 0.91479 -0.401815
vn 0.937962 0.32006 -0.133373
vn 0.981745 -0.0101019 0.189931
vn 0.923495 0.375936 -0.0763459
vn 0.863025 0.455835 -0.217722
vn -0.996585 0.0825245 -0.0027323
vn -0.972337 0.00168039 0.233574
vn -0.40657 -0.378301 0.831619
vn -0.695905 -0.492124 0.523
vn 0.809375 -0.147678 0.568422
vn 0.981745 -0.0101019 0.189931
vn -0.695905 -0.492124 0.523
vn -0.40657 -0.378301 0.831619
vn -0.972337 0.00168039 0.233574
vn -0.921976 0.0328703 0.38585
vn -0.0786806 -0.0445371 0.995905
vn -0.40657 -0.378301 0.831619
vn 0.824155 0.0268645 0.565727
vn 0.809375 -0.147678 0.568422
vn -0.40657 -0.378301 0.831619
vn -0.0786806 -0.0445371 0.995905
vn -0.921976 0.0328703 0.38585
vn -0.888871 0.023527 0.457553
vn -0.0199602 -0.00848931 0.999765
vn -0.0786806 -0.0445371 0.995905
vn 0.800784 0.014785 0.59877
vn 0.824155 0.0268645 0.565727
vn -0.0786806 -0.0445371 0.995905
vn -0.0199602 -0.00848931 0.999765
vn -0.888871 0.023527 0.457553
vn -0.872812 0.0604114 0.484304
vn 0.0967176 0.119669 0.988092
vn -0.0199602 -0.00848931 0.999765
vn 0.85064 0.0465318 0.523686
vn 0.800784 0.014785 0.59877
vn -0.0199602 -0.00848931 0.999765
vn 0.0967176 0.119669 0.988092
vn 0.917653 0.046098 0.3947
vn 0.85064 0.0465318 0.523686
vn 0.0967176 0.119669 0.988092
vn 0.143756 0.242953 0.959327
vn -0.872812 0.0604114 0.484304
vn -0.916044 0.0861798 0.391711
vn 0.143756 0.242953 0.959327
vn 0.0967176 0.119669 0.988092
vn 0.973517 0.0423016 0.224665
vn 0.917653 0.046098 0.3947
vn 0.143756 0.242953 0.959327
vn 0.183532 0.50258 0.844825
vn -0.916044 0.0861798 0.391711
vn -0.960935 0.13789 0.239981
vn 0.183532 0.50258 0.844825
vn 0.143756 0.242953 0.959327
vn 0.997973 -0.00428635 0.0634893
vn 0.973517 0.0423016 0.224665
vn 0.183532 0.50258 0.844825
vn 0.148041 0.707185 0.691356
vn -0.960935 0.13789 0.239981
vn -0.994963 0.0923067 0.0391038
vn 0.148041 0.707185 0.691356
vn 0.183532 0.50258 0.844825
vn 0.997148 -0.0509673 0.0556664
vn 0.997973 -0.00428635 0.0634893
vn 0.148041 0.707185 0.691356
vn 0.168745 0.179832 0.969116
vn -0.994963 0.0923067 0.0391038
vn -0.994036 -0.072383 -0.0815604
vn 0.168745 0.179832 0.969116
vn 0.148041 0.707185 0.691356
vn -0.902708 -0.41529 -0.112479
vn -0.00830078 -0.994439 -0.104987
vn 0.168745 0.179832 0.969116
vn -0.994036 -0.072383 -0.0815604
vn -0.00830078 -0.994439 -0.104987
vn 0.932684 -0.359858 0.0245577
vn 0.997148 -0.0509673 0.0556664
vn 0.168745 0.179832 0.969116
vn 0.981745 -0.0101019 0.189931
vn 0.937962 0.32006 -0.133373
vn -0.0829024 0.899288 -0.429429
vn -0.695905 -0.492124 0.523
vn -0.695905 -0.492124 0.523
vn -0.0829024 0.899288 -0.429429
vn -0.969187 0.206347 -0.134525
vn -0.996585 0.0825245 -0.0027323
vn 0.467356 0.879371 -0.0910204
vn 0.234773 0.967677 -0.0921077
vn -1.9722e-005 0.995655 -0.0931229
vn 3.49076e-006 0.960383 -0.278683
vn 0.462994 0.849468 0.253062
vn 0.472109 0.878967 0.067304
vn 0.467356 0.879371 -0.0910204
vn 0.520456 0.653651 0.549423
vn 0.472109 0.878967 0.067304
vn 0.461661 0.883011 -0.0846256
vn 0.234773 0.967677 -0.0921077
vn 0.467356 0.879371 -0.0910204
vn 0.66457 0.703941 0.250629
vn 0.679322 0.730178 0.0732189
vn 0.472109 0.878967 0.067304
vn 0.462994 0.849468 0.253062
vn 0.679322 0.730178 0.0732189
vn 0.669523 0.739255 -0.072395
vn 0.461661 0.883011 -0.0846256
vn 0.472109 0.878967 0.067304
vn 0.82629 0.505334 0.248762
vn 0.847048 0.525626 0.0789067
vn 0.679322 0.730178 0.0732189
vn 0.66457 0.703941 0.250629
vn 0.847048 0.525626 0.0789067
vn 0.84182 0.536569 -0.0585827
vn 0.669523 0.739255 -0.072395
vn 0.679322 0.730178 0.0732189
vn 0.931756 0.264532 0.248702
vn 0.957743 0.2758 0.0816274
vn 0.847048 0.525626 0.0789067
vn 0.82629 0.505334 0.248762
vn 0.957743 0.2758 0.0816274
vn 0.958436 0.283204 -0.0345952
vn 0.84182 0.536569 -0.0585827
vn 0.847048 0.525626 0.0789067
vn 0.967891 0.000188104 0.251372
vn 0.99686 -3.00502e-005 0.0791846
vn 0.957743 0.2758 0.0816274
vn 0.931756 0.264532 0.248702
vn 0.99686 -3.00502e-005 0.0791846
vn 0.999822 0.014251 -0.0123254
vn 0.958436 0.283204 -0.0345952
vn 0.957743 0.2758 0.0816274
vn 0.929802 -0.263584 0.256887
vn 0.958709 -0.276157 0.0679325
vn 0.99686 -3.00502e-005 0.0791846
vn 0.967891 0.000188104 0.251372
vn 0.958709 -0.276157 0.0679325
vn 0.928619 -0.245936 -0.277817
vn 0.999822 0.014251 -0.0123254
vn 0.99686 -3.00502e-005 0.0791846
vn 0.849176 -0.0670281 0.523839
vn 0.941423 -0.323686 -0.0946081
vn 0.958709 -0.276157 0.0679325
vn 0.929802 -0.263584 0.256887
vn 0.941423 -0.323686 -0.0946081
vn 0.833684 -0.551069 -0.0359683
vn 0.928619 -0.245936 -0.277817
vn 0.958709 -0.276157 0.0679325
vn 0.638067 -0.6926 -0.336416
vn 0.675045 -0.737112 -0.0313189
vn 0.833684 -0.551069 -0.0359683
vn 0.941423 -0.323686 -0.0946081
vn 0.298798 -0.944047 -0.139628
vn 0.461215 -0.886268 -0.0425428
vn 0.675045 -0.737112 -0.0313189
vn 0.638067 -0.6926 -0.336416
vn 0.23491 -0.928224 0.288476
vn 0.241829 -0.970132 0.0190383
vn 0.298798 -0.944047 -0.139628
vn 0.0936288 -0.860881 0.500117
vn 0.241829 -0.970132 0.0190383
vn 0.234459 -0.970841 -0.0499705
vn 0.461215 -0.886268 -0.0425428
vn 0.298798 -0.944047 -0.139628
vn -2.19501e-005 -0.957357 0.288909
vn -7.03687e-007 -0.999888 0.0149728
vn 0.241829 -0.970132 0.0190383
vn 0.23491 -0.928224 0.288476
vn -7.03687e-007 -0.999888 0.0149728
vn -6.31608e-006 -0.998633 -0.0522737
vn 0.234459 -0.970841 -0.0499705
vn 0.241829 -0.970132 0.0190383
vn -0.235069 -0.928723 0.286733
vn -0.241837 -0.970156 0.0176434
vn -7.03687e-007 -0.999888 0.0149728
vn -2.19501e-005 -0.957357 0.288909
vn -0.241837 -0.970156 0.0176434
vn -0.23448 -0.970886 -0.0489904
vn -6.31608e-006 -0.998633 -0.0522737
vn -7.03687e-007 -0.999888 0.0149728
vn -0.077257 -0.859701 0.504922
vn -0.295926 -0.948439 -0.11354
vn -0.241837 -0.970156 0.0176434
vn -0.235069 -0.928723 0.286733
vn -0.295926 -0.948439 -0.11354
vn -0.461254 -0.886334 -0.0406978
vn -0.23448 -0.970886 -0.0489904
vn -0.241837 -0.970156 0.0176434
vn -0.927552 -0.262966 0.265512
vn -0.958666 -0.276098 0.0687747
vn -0.94308 -0.325899 -0.0662548
vn -0.852162 -0.0499086 0.520893
vn -0.958666 -0.276098 0.0687747
vn -0.941014 -0.229946 -0.24823
vn -0.833357 -0.551001 -0.0437479
vn -0.94308 -0.325899 -0.0662548
vn -0.965123 0.00018397 0.261796
vn -0.996812 -8.39645e-005 0.0797898
vn -0.958666 -0.276098 0.0687747
vn -0.927552 -0.262966 0.265512
vn -0.996812 -8.39645e-005 0.0797898
vn -0.998833 0.0405974 -0.0261643
vn -0.941014 -0.229946 -0.24823
vn -0.958666 -0.276098 0.0687747
vn -0.928882 0.263731 0.260046
vn -0.95721 0.275634 0.0881815
vn -0.996812 -8.39645e-005 0.0797898
vn -0.965123 0.00018397 0.261796
vn -0.95721 0.275634 0.0881815
vn -0.949637 0.310093 -0.0450863
vn -0.998833 0.0405974 -0.0261643
vn -0.996812 -8.39645e-005 0.0797898
vn -0.824454 0.504483 0.256463
vn -0.846491 0.525279 0.0868009
vn -0.95721 0.275634 0.0881815
vn -0.928882 0.263731 0.260046
vn -0.846491 0.525279 0.0868009
vn -0.842102 0.536861 -0.0514196
vn -0.949637 0.310093 -0.0450863
vn -0.95721 0.275634 0.0881815
vn -0.664016 0.703423 0.253535
vn -0.678906 0.729743 0.0810034
vn -0.846491 0.525279 0.0868009
vn -0.824454 0.504483 0.256463
vn -0.678906 0.729743 0.0810034
vn -0.669971 0.739779 -0.0621829
vn -0.842102 0.536861 -0.0514196
vn -0.846491 0.525279 0.0868009
vn -0.462815 0.849157 0.254429
vn -0.471892 0.878588 0.073494
vn -0.678906 0.729743 0.0810034
vn -0.664016 0.703423 0.253535
vn -0.471892 0.878588 0.073494
vn -0.461979 0.883606 -0.0762619
vn -0.669971 0.739779 -0.0621829
vn -0.678906 0.729743 0.0810034
vn -0.518619 0.655481 0.548981
vn -0.466282 0.880371 -0.0867701
vn -0.471892 0.878588 0.073494
vn -0.462815 0.849157 0.254429
vn -0.466282 0.880371 -0.0867701
vn -0.234901 0.968078 -0.0874391
vn -0.461979 0.883606 -0.0762619
vn -0.471892 0.878588 0.073494
vn 3.49076e-006 0.960383 -0.278683
vn -1.9722e-005 0.995655 -0.0931229
vn -0.234901 0.968078 -0.0874391
vn -0.466282 0.880371 -0.0867701
vn -0.000977654 -0.671585 0.740927
vn -0.704772 -0.327863 0.629128
vn -0.518619 0.655481 0.548981
vn -2.71437e-005 0.318695 0.947857
vn 0.698612 -0.292987 0.652764
vn -0.000977654 -0.671585 0.740927
vn -2.71437e-005 0.318695 0.947857
vn 0.520456 0.653651 0.549423
vn -0.000497752 0.851491 -0.524369
vn 0.611742 0.729351 -0.306298
vn 0.467356 0.879371 -0.0910204
vn 3.49076e-006 0.960383 -0.278683
vn 0.611742 0.729351 -0.306298
vn 0.698612 -0.292987 0.652764
vn 0.520456 0.653651 0.549423
vn 0.467356 0.879371 -0.0910204
vn -0.704772 -0.327863 0.629128
vn -0.658815 0.69036 -0.298943
vn -0.466282 0.880371 -0.0867701
vn -0.518619 0.655481 0.548981
vn -0.658815 0.69036 -0.298943
vn -0.000497752 0.851491 -0.524369
vn 3.49076e-006 0.960383 -0.278683
vn -0.466282 0.880371 -0.0867701
vn -0.00336267 0.15465 0.987964
vn -0.796578 0.411405 0.442955
vn -0.704772 -0.327863 0.629128
vn -0.000977654 -0.671585 0.740927
vn 0.732024 0.532327 0.425168
vn -0.00336267 0.15465 0.987964
vn -0.000977654 -0.671585 0.740927
vn 0.698612 -0.292987 0.652764
vn -0.000525557 0.972242 -0.233977
vn 0.43958 0.887239 -0.139919
vn 0.611742 0.729351 -0.306298
vn -0.000497752 0.851491 -0.524369
vn 0.43958 0.887239 -0.139919
vn 0.732024 0.532327 0.425168
vn 0.698612 -0.292987 0.652764
vn 0.611742 0.729351 -0.306298
vn -0.796578 0.411405 0.442955
vn -0.500604 0.855404 -0.132962
vn -0.658815 0.69036 -0.298943
vn -0.704772 -0.327863 0.629128
vn -0.500604 0.855404 -0.132962
vn -0.000525557 0.972242 -0.233977
vn -0.000497752 0.851491 -0.524369
vn -0.658815 0.69036 -0.298943
vn 0.585794 -0.194339 -0.786815
vn 0.624489 -0.0982925 -0.774824
vn 0.774862 -0.201938 -0.599008
vn 0.75121 -0.254328 -0.609099
vn -0.990163 -0.0314649 -0.136335
vn -0.998833 0.0405974 -0.0261643
vn -0.949637 0.310093 -0.0450863
vn -0.91167 0.31468 -0.264263
vn 0.668884 -0.475216 0.571632
vn 0.766473 -0.538435 -0.350153
vn 0.875604 -0.313524 -0.367451
vn 0.8391 -0.15768 0.520624
vn 0.766473 -0.538435 -0.350153
vn 0.638188 -0.460795 -0.616753
vn 0.75121 -0.254328 -0.609099
vn 0.875604 -0.313524 -0.367451
vn 0.638188 -0.460795 -0.616753
vn 0.492853 -0.363804 -0.790407
vn 0.585794 -0.194339 -0.786815
vn 0.75121 -0.254328 -0.609099
vn 0.492853 -0.363804 -0.790407
vn 0.492516 -0.429771 -0.756786
vn 0.576253 -0.3046 -0.758388
vn 0.585794 -0.194339 -0.786815
vn -0.0285257 -0.400786 -0.915728
vn 0.576253 -0.3046 -0.758388
vn 0.492516 -0.429771 -0.756786
vn -0.0192078 -0.530926 -0.847201
vn -0.0192078 -0.530926 -0.847201
vn -0.507962 -0.423494 -0.750085
vn -0.59966 -0.235108 -0.764939
vn -0.0285257 -0.400786 -0.915728
vn -0.59966 -0.235108 -0.764939
vn -0.507962 -0.423494 -0.750085
vn -0.490442 -0.36143 -0.792991
vn -0.584234 -0.197895 -0.787089
vn -0.584234 -0.197895 -0.787089
vn -0.490442 -0.36143 -0.792991
vn -0.63907 -0.461288 -0.61547
vn -0.751935 -0.250842 -0.609649
vn -0.751935 -0.250842 -0.609649
vn -0.63907 -0.461288 -0.61547
vn -0.780714 -0.521394 -0.344432
vn -0.879755 -0.328544 -0.343642
vn -0.908523 -0.270827 0.318179
vn -0.879755 -0.328544 -0.343642
vn -0.780714 -0.521394 -0.344432
vn -0.682881 -0.444326 0.579869
vn 0.9974 -0.0155128 -0.0703785
vn 0.799797 -0.065773 -0.596657
vn 0.787679 0.267388 -0.555037
vn 0.924461 0.286396 -0.251692
vn 0.623254 0.724477 -0.294428
vn 0.555619 0.70501 -0.440737
vn 0.382033 0.839694 -0.385959
vn 0.423244 0.852256 -0.307449
vn 0.797493 0.535123 -0.278653
vn 0.697748 0.511213 -0.501806
vn 0.555619 0.70501 -0.440737
vn 0.623254 0.724477 -0.294428
vn 0.924461 0.286396 -0.251692
vn 0.787679 0.267388 -0.555037
vn 0.697748 0.511213 -0.501806
vn 0.797493 0.535123 -0.278653
vn 0.958436 0.283204 -0.0345952
vn 0.924461 0.286396 -0.251692
vn 0.797493 0.535123 -0.278653
vn 0.84182 0.536569 -0.0585827
vn 0.84182 0.536569 -0.0585827
vn 0.797493 0.535123 -0.278653
vn 0.623254 0.724477 -0.294428
vn 0.669523 0.739255 -0.072395
vn -0.365612 -0.252868 0.89576
vn -0.832138 0 0.554569
vn -0.990163 -0.0314649 -0.136335
vn -0.908523 -0.270827 0.318179
vn 0.203754 -0.510751 0.835235
vn 0.148524 -0.403665 0.902771
vn -0.682881 -0.444326 0.579869
vn -0.563524 -0.609877 0.557217
vn -0.251056 -0.526164 0.812479
vn 0.203754 -0.510751 0.835235
vn -0.563524 -0.609877 0.557217
vn -0.353029 -0.740393 0.572004
vn -0.12607 -0.569516 0.812255
vn -0.251056 -0.526164 0.812479
vn -0.353029 -0.740393 0.572004
vn -0.176641 -0.798469 0.575539
vn 0 -0.583404 0.812182
vn -0.12607 -0.569516 0.812255
vn -0.176641 -0.798469 0.575539
vn 3.51794e-006 -0.816868 0.576824
vn 0.12607 -0.569516 0.812255
vn 0 -0.583404 0.812182
vn 3.51794e-006 -0.816868 0.576824
vn 0.176621 -0.79835 0.57571
vn 0.251056 -0.526164 0.812479
vn 0.12607 -0.569516 0.812255
vn 0.176621 -0.79835 0.57571
vn 0.352942 -0.740199 0.572308
vn -0.203754 -0.510751 0.835235
vn 0.251056 -0.526164 0.812479
vn 0.352942 -0.740199 0.572308
vn 0.559403 -0.601991 0.569802
vn -0.151572 -0.428713 0.890635
vn -0.203754 -0.510751 0.835235
vn 0.559403 -0.601991 0.569802
vn 0.668884 -0.475216 0.571632
vn 0.227484 0.306499 0.924289
vn 0.000742228 -0.108969 0.994045
vn 0.8391 -0.15768 0.520624
vn 0.9974 -0.0155128 -0.0703785
vn 0.000742228 -0.108969 0.994045
vn -0.151572 -0.428713 0.890635
vn 0.668884 -0.475216 0.571632
vn 0.8391 -0.15768 0.520624
vn 0.148524 -0.403665 0.902771
vn -0.365612 -0.252868 0.89576
vn -0.908523 -0.270827 0.318179
vn -0.682881 -0.444326 0.579869
vn -0.832138 0 0.554569
vn 0.227484 0.306499 0.924289
vn 0.369678 -0.234171 -0.899168
vn -0.00873529 0.0662192 -0.997767
vn 0.378106 -0.0227792 -0.925482
vn 0.928619 -0.245936 -0.277817
vn 0.290002 -0.898938 0.328344
vn -0.612296 -0.041888 0.789518
vn 0.705573 -0.0743095 0.70473
vn 0.88299 -0.313612 -0.349252
vn 0.26596 -0.315895 -0.910755
vn -0.024818 -0.00365816 -0.999685
vn -0.00873529 0.0662192 -0.997767
vn 0.369678 -0.234171 -0.899168
vn -0.0283009 -0.977427 0.209367
vn -0.637275 0.0441953 0.769368
vn 0.556016 0.570522 0.604442
vn 0.896602 -0.244155 -0.36945
vn 0.203108 -0.402861 -0.892441
vn 0.0273093 -0.0606364 -0.997786
vn -0.024818 -0.00365816 -0.999685
vn 0.26596 -0.315895 -0.910755
vn -0.301039 -0.942345 0.146155
vn -0.718847 0.20499 0.664257
vn 0.556708 0.564594 0.609352
vn 0.876826 -0.438402 -0.197433
vn 0.10656 -0.453579 -0.884823
vn 0.0220695 -0.0987822 -0.994864
vn 0.0273093 -0.0606364 -0.997786
vn 0.203108 -0.402861 -0.892441
vn -0.474112 -0.876399 0.0845125
vn -0.716496 0.319739 0.62
vn 0.59827 0.536584 0.595105
vn 0.810224 -0.576286 -0.106915
vn -1.03494e-005 -0.470702 -0.882292
vn 0 -0.111575 -0.993756
vn 0.0220695 -0.0987822 -0.994864
vn 0.10656 -0.453579 -0.884823
vn -0.610005 -0.792009 0.0248203
vn -0.687924 0.412125 0.597422
vn 0.645716 0.484508 0.590171
vn 0.720481 -0.692505 -0.0366702
vn -0.106907 -0.454979 -0.884062
vn -0.0220695 -0.0987822 -0.994864
vn 0 -0.111575 -0.993756
vn -1.03494e-005 -0.470702 -0.882292
vn -0.72048 -0.692505 -0.0366702
vn -0.645716 0.484508 0.590171
vn 0.687924 0.412125 0.597422
vn 0.610005 -0.792009 0.0248203
vn -0.204277 -0.405152 -0.891136
vn -0.0273093 -0.0606364 -0.997786
vn -0.0220695 -0.0987822 -0.994864
vn -0.106907 -0.454979 -0.884062
vn -0.810224 -0.576286 -0.106915
vn -0.59827 0.536584 0.595105
vn 0.716496 0.319739 0.62
vn 0.474112 -0.876399 0.0845124
vn -0.2602 -0.310445 -0.914286
vn 0.0248181 -0.00365813 -0.999685
vn -0.0273093 -0.0606364 -0.997786
vn -0.204277 -0.405152 -0.891136
vn -0.876826 -0.438402 -0.197433
vn -0.556708 0.564594 0.609352
vn 0.718847 0.20499 0.664257
vn 0.301039 -0.942345 0.146155
vn -0.289012 -0.192766 -0.937717
vn 0.0770754 0.106949 -0.991273
vn 0.0248181 -0.00365813 -0.999685
vn -0.2602 -0.310445 -0.914286
vn -0.896602 -0.244155 -0.36945
vn -0.556016 0.570522 0.604442
vn 0.637275 0.0441953 0.769368
vn 0.0283009 -0.977427 0.209367
vn -0.941014 -0.229946 -0.24823
vn -0.316995 0.0310417 -0.947919
vn 0.0770754 0.106949 -0.991273
vn -0.289012 -0.192766 -0.937717
vn -0.88299 -0.313612 -0.349252
vn -0.705572 -0.0743096 0.704732
vn 0.612296 -0.0418878 0.789518
vn -0.29 -0.898938 0.328345
vn 0.290002 -0.898938 0.328344
vn 0.88299 -0.313612 -0.349252
vn 0.378106 -0.0227792 -0.925482
vn -0.00873529 0.0662192 -0.997767
vn 0.88299 -0.313612 -0.349252
vn 0.705573 -0.0743095 0.70473
vn -0.173843 0.781332 -0.599415
vn 0.378106 -0.0227792 -0.925482
vn -0.173843 0.781332 -0.599415
vn 0.705573 -0.0743095 0.70473
vn -0.612296 -0.041888 0.789518
vn -0.797909 0.552198 0.241699
vn -0.797909 0.552198 0.241699
vn -0.612296 -0.041888 0.789518
vn 0.290002 -0.898938 0.328344
vn -0.00873529 0.0662192 -0.997767
vn -0.0283009 -0.977427 0.209367
vn 0.896602 -0.244155 -0.36945
vn -0.00873529 0.0662192 -0.997767
vn -0.024818 -0.00365816 -0.999685
vn 0.896602 -0.244155 -0.36945
vn 0.556016 0.570522 0.604442
vn -0.797909 0.552198 0.241699
vn -0.00873529 0.0662192 -0.997767
vn -0.797909 0.552198 0.241699
vn 0.556016 0.570522 0.604442
vn -0.637275 0.0441953 0.769368
vn -0.656765 0.724355 0.209687
vn -0.656765 0.724355 0.209687
vn -0.637275 0.0441953 0.769368
vn -0.0283009 -0.977427 0.209367
vn -0.024818 -0.00365816 -0.999685
vn -0.301039 -0.942345 0.146155
vn 0.876826 -0.438402 -0.197433
vn -0.024818 -0.00365816 -0.999685
vn 0.0273093 -0.0606364 -0.997786
vn 0.876826 -0.438402 -0.197433
vn 0.556708 0.564594 0.609352
vn -0.656765 0.724355 0.209687
vn -0.024818 -0.00365816 -0.999685
vn -0.656765 0.724355 0.209687
vn 0.556708 0.564594 0.609352
vn -0.718847 0.20499 0.664257
vn -0.453934 0.888311 0.0696218
vn -0.453934 0.888311 0.0696218
vn -0.718847 0.20499 0.664257
vn -0.301039 -0.942345 0.146155
vn 0.0273093 -0.0606364 -0.997786
vn -0.474112 -0.876399 0.0845125
vn 0.810224 -0.576286 -0.106915
vn 0.0273093 -0.0606364 -0.997786
vn 0.0220695 -0.0987822 -0.994864
vn 0.810224 -0.576286 -0.106915
vn 0.59827 0.536584 0.595105
vn -0.453934 0.888311 0.0696218
vn 0.0273093 -0.0606364 -0.997786
vn -0.453934 0.888311 0.0696218
vn 0.59827 0.536584 0.595105
vn -0.716496 0.319739 0.62
vn -0.230763 0.972761 0.0219961
vn -0.230763 0.972761 0.0219961
vn -0.716496 0.319739 0.62
vn -0.474112 -0.876399 0.0845125
vn 0.0220695 -0.0987822 -0.994864
vn -0.610005 -0.792009 0.0248203
vn 0.720481 -0.692505 -0.0366702
vn 0.0220695 -0.0987822 -0.994864
vn 0 -0.111575 -0.993756
vn 0.720481 -0.692505 -0.0366702
vn 0.645716 0.484508 0.590171
vn -0.230763 0.972761 0.0219961
vn 0.0220695 -0.0987822 -0.994864
vn -0.230763 0.972761 0.0219961
vn 0.645716 0.484508 0.590171
vn -0.687924 0.412125 0.597422
vn 1.39436e-008 0.999969 0.00793315
vn 1.39436e-008 0.999969 0.00793315
vn -0.687924 0.412125 0.597422
vn -0.610005 -0.792009 0.0248203
vn 0 -0.111575 -0.993756
vn -0.0220695 -0.0987822 -0.994864
vn -0.72048 -0.692505 -0.0366702
vn 0.610005 -0.792009 0.0248203
vn 0 -0.111575 -0.993756
vn 0.610005 -0.792009 0.0248203
vn 0.687924 0.412125 0.597422
vn 1.39436e-008 0.999969 0.00793315
vn 0 -0.111575 -0.993756
vn 0.687924 0.412125 0.597422
vn -0.645716 0.484508 0.590171
vn 0.230763 0.972761 0.0219961
vn 1.39436e-008 0.999969 0.00793315
vn 0.230763 0.972761 0.0219961
vn -0.645716 0.484508 0.590171
vn -0.72048 -0.692505 -0.0366702
vn -0.0220695 -0.0987822 -0.994864
vn -0.0273093 -0.0606364 -0.997786
vn -0.810224 -0.576286 -0.106915
vn 0.474112 -0.876399 0.0845124
vn -0.0220695 -0.0987822 -0.994864
vn 0.474112 -0.876399 0.0845124
vn 0.716496 0.319739 0.62
vn 0.230763 0.972761 0.0219961
vn -0.0220695 -0.0987822 -0.994864
vn 0.716496 0.319739 0.62
vn -0.59827 0.536584 0.595105
vn 0.453935 0.888311 0.0696218
vn 0.230763 0.972761 0.0219961
vn 0.453935 0.888311 0.0696218
vn -0.59827 0.536584 0.595105
vn -0.810224 -0.576286 -0.106915
vn -0.0273093 -0.0606364 -0.997786
vn 0.0248181 -0.00365813 -0.999685
vn -0.876826 -0.438402 -0.197433
vn 0.301039 -0.942345 0.146155
vn -0.0273093 -0.0606364 -0.997786
vn 0.301039 -0.942345 0.146155
vn 0.718847 0.20499 0.664257
vn 0.453935 0.888311 0.0696218
vn -0.0273093 -0.0606364 -0.997786
vn 0.718847 0.20499 0.664257
vn -0.556708 0.564594 0.609352
vn 0.656765 0.724355 0.209687
vn 0.453935 0.888311 0.0696218
vn 0.656765 0.724355 0.209687
vn -0.556708 0.564594 0.609352
vn -0.876826 -0.438402 -0.197433
vn 0.0248181 -0.00365813 -0.999685
vn 0.0770754 0.106949 -0.991273
vn -0.896602 -0.244155 -0.36945
vn 0.0283009 -0.977427 0.209367
vn 0.0248181 -0.00365813 -0.999685
vn 0.0283009 -0.977427 0.209367
vn 0.637275 0.0441953 0.769368
vn 0.656765 0.724355 0.209687
vn 0.0248181 -0.00365813 -0.999685
vn 0.637275 0.0441953 0.769368
vn -0.556016 0.570522 0.604442
vn 0.797909 0.552198 0.241699
vn 0.656765 0.724355 0.209687
vn 0.797909 0.552198 0.241699
vn -0.556016 0.570522 0.604442
vn -0.896602 -0.244155 -0.36945
vn 0.0770754 0.106949 -0.991273
vn -0.316995 0.0310417 -0.947919
vn -0.88299 -0.313612 -0.349252
vn -0.29 -0.898938 0.328345
vn 0.0770754 0.106949 -0.991273
vn -0.29 -0.898938 0.328345
vn 0.612296 -0.0418878 0.789518
vn 0.797909 0.552198 0.241699
vn 0.0770754 0.106949 -0.991273
vn 0.612296 -0.0418878 0.789518
vn -0.705572 -0.0743096 0.704732
vn 0.173842 0.781333 -0.599415
vn 0.797909 0.552198 0.241699
vn 0.173842 0.781333 -0.599415
vn -0.705572 -0.0743096 0.704732
vn -0.88299 -0.313612 -0.349252
vn -0.316995 0.0310417 -0.947919
vn 0.912473 0.315896 -0.260005
vn 0.861901 0.294068 -0.413099
vn 0.24382 -0.517669 -0.820104
vn 0.28968 -0.675936 -0.67764
vn 0.820938 0.452954 -0.347697
vn 0.757192 0.417782 -0.502114
vn 0.332787 -0.603145 -0.724892
vn 0.400951 -0.726687 -0.55782
vn 0.755075 0.540666 -0.370867
vn -0.508454 0.710089 -0.487081
vn -0.755075 -0.540666 -0.370867
vn 0.508454 -0.710089 -0.487081
vn 0.682053 0.612268 -0.399914
vn -0.600802 0.66928 -0.437152
vn -0.682053 -0.612268 -0.399914
vn 0.600802 -0.66928 -0.437152
vn 0.600802 0.66928 -0.437152
vn -0.682053 0.612268 -0.399914
vn -0.600802 -0.66928 -0.437152
vn 0.682053 -0.612268 -0.399914
vn 0.508454 0.710089 -0.487081
vn -0.755075 0.540666 -0.370866
vn -0.508454 -0.710089 -0.487081
vn 0.755075 -0.540666 -0.370867
vn -0.757192 0.417782 -0.502113
vn -0.820938 0.452954 -0.347697
vn -0.400951 -0.726687 -0.55782
vn -0.332787 -0.603145 -0.724892
vn -0.861901 0.294068 -0.413099
vn -0.912473 0.315896 -0.260005
vn -0.28968 -0.675935 -0.677641
vn -0.24382 -0.517668 -0.820104
vn -0.810372 0.240962 -0.534073
vn -0.882966 0.258222 -0.392037
vn -0.113036 -0.618565 -0.77756
vn -0.0574603 -0.454595 -0.888843
vn 0.886265 0.215087 -0.41021
vn 0.810881 0.200992 -0.549612
vn -0.00269192 -0.396709 -0.917941
vn 0.0442288 -0.557606 -0.828927
vn 0.903331 0.406624 0.136563
vn 0.912473 0.315896 -0.260005
vn 0.28968 -0.675936 -0.67764
vn 0.203754 -0.510751 0.835235
vn 0.28968 -0.675936 -0.67764
vn 0.24382 -0.517669 -0.820104
vn 0.148524 -0.403665 0.902771
vn 0.203754 -0.510751 0.835235
vn 0.957606 0.27753 0.0772509
vn 0.148524 -0.403665 0.902771
vn 0.24382 -0.517669 -0.820104
vn 0.861901 0.294068 -0.413099
vn 0.903331 0.406624 0.136563
vn 0.957606 0.27753 0.0772509
vn 0.861901 0.294068 -0.413099
vn 0.912473 0.315896 -0.260005
vn 0.403892 0.846476 0.346914
vn 0.820938 0.452954 -0.347697
vn 0.400951 -0.726687 -0.55782
vn -0.251056 -0.526164 0.812479
vn 0.400951 -0.726687 -0.55782
vn 0.332787 -0.603145 -0.724892
vn 0.203754 -0.510751 0.835235
vn -0.251056 -0.526164 0.812479
vn 0.903331 0.406624 0.136563
vn 0.203754 -0.510751 0.835235
vn 0.332787 -0.603145 -0.724892
vn 0.757192 0.417782 -0.502114
vn 0.403892 0.846476 0.346914
vn 0.903331 0.406624 0.136563
vn 0.757192 0.417782 -0.502114
vn 0.820938 0.452954 -0.347697
vn 0.202728 0.915818 0.346667
vn 0.755075 0.540666 -0.370867
vn 0.508454 -0.710089 -0.487081
vn -0.12607 -0.569516 0.812255
vn 0.508454 -0.710089 -0.487081
vn -0.755075 -0.540666 -0.370867
vn -0.251056 -0.526164 0.812479
vn -0.12607 -0.569516 0.812255
vn -0.755075 -0.540666 -0.370867
vn -0.508454 0.710089 -0.487081
vn 0.403892 0.846476 0.346914
vn -0.251056 -0.526164 0.812479
vn 0.202728 0.915818 0.346667
vn 0.403892 0.846476 0.346914
vn -0.508454 0.710089 -0.487081
vn 0.755075 0.540666 -0.370867
vn 1.07207e-008 0.938018 0.346587
vn 0.682053 0.612268 -0.399914
vn 0.600802 -0.66928 -0.437152
vn 0 -0.583404 0.812182
vn 0.600802 -0.66928 -0.437152
vn -0.682053 -0.612268 -0.399914
vn -0.12607 -0.569516 0.812255
vn 0 -0.583404 0.812182
vn -0.682053 -0.612268 -0.399914
vn -0.600802 0.66928 -0.437152
vn 0.202728 0.915818 0.346667
vn -0.12607 -0.569516 0.812255
vn 1.07207e-008 0.938018 0.346587
vn 0.202728 0.915818 0.346667
vn -0.600802 0.66928 -0.437152
vn 0.682053 0.612268 -0.399914
vn -0.202729 0.915818 0.346667
vn 0.600802 0.66928 -0.437152
vn 0.682053 -0.612268 -0.399914
vn 0.12607 -0.569516 0.812255
vn 0.12607 -0.569516 0.812255
vn 0.682053 -0.612268 -0.399914
vn -0.600802 -0.66928 -0.437152
vn 0 -0.583404 0.812182
vn -0.600802 -0.66928 -0.437152
vn -0.682053 0.612268 -0.399914
vn 1.07207e-008 0.938018 0.346587
vn 0 -0.583404 0.812182
vn 0.600802 0.66928 -0.437152
vn -0.202729 0.915818 0.346667
vn 1.07207e-008 0.938018 0.346587
vn -0.682053 0.612268 -0.399914
vn -0.403892 0.846476 0.346915
vn 0.508454 0.710089 -0.487081
vn 0.755075 -0.540666 -0.370867
vn 0.251056 -0.526164 0.812479
vn 0.251056 -0.526164 0.812479
vn 0.755075 -0.540666 -0.370867
vn -0.508454 -0.710089 -0.487081
vn 0.12607 -0.569516 0.812255
vn -0.508454 -0.710089 -0.487081
vn -0.755075 0.540666 -0.370866
vn -0.202729 0.915818 0.346667
vn 0.12607 -0.569516 0.812255
vn 0.508454 0.710089 -0.487081
vn -0.403892 0.846476 0.346915
vn -0.202729 0.915818 0.346667
vn -0.755075 0.540666 -0.370866
vn -0.332787 -0.603145 -0.724892
vn -0.203754 -0.510751 0.835235
vn -0.903331 0.406624 0.136563
vn -0.757192 0.417782 -0.502113
vn -0.203754 -0.510751 0.835235
vn -0.332787 -0.603145 -0.724892
vn -0.400951 -0.726687 -0.55782
vn 0.251056 -0.526164 0.812479
vn -0.400951 -0.726687 -0.55782
vn -0.820938 0.452954 -0.347697
vn -0.403892 0.846476 0.346915
vn 0.251056 -0.526164 0.812479
vn -0.757192 0.417782 -0.502113
vn -0.903331 0.406624 0.136563
vn -0.403892 0.846476 0.346915
vn -0.820938 0.452954 -0.347697
vn -0.24382 -0.517668 -0.820104
vn -0.151572 -0.428713 0.890635
vn -0.949503 0.30051 0.0902134
vn -0.861901 0.294068 -0.413099
vn -0.151572 -0.428713 0.890635
vn -0.24382 -0.517668 -0.820104
vn -0.28968 -0.675935 -0.677641
vn -0.203754 -0.510751 0.835235
vn -0.28968 -0.675935 -0.677641
vn -0.912473 0.315896 -0.260005
vn -0.903331 0.406624 0.136563
vn -0.203754 -0.510751 0.835235
vn -0.861901 0.294068 -0.413099
vn -0.949503 0.30051 0.0902134
vn -0.903331 0.406624 0.136563
vn -0.912473 0.315896 -0.260005
vn -0.0574603 -0.454595 -0.888843
vn 0.000742228 -0.108969 0.994045
vn -0.95903 0.272529 -0.0773868
vn -0.810372 0.240962 -0.534073
vn 0.000742228 -0.108969 0.994045
vn -0.0574603 -0.454595 -0.888843
vn -0.113036 -0.618565 -0.77756
vn -0.151572 -0.428713 0.890635
vn -0.113036 -0.618565 -0.77756
vn -0.882966 0.258222 -0.392037
vn -0.949503 0.30051 0.0902134
vn -0.151572 -0.428713 0.890635
vn -0.810372 0.240962 -0.534073
vn -0.95903 0.272529 -0.0773868
vn -0.949503 0.30051 0.0902134
vn -0.882966 0.258222 -0.392037
vn 0.957606 0.27753 0.0772509
vn 0.886265 0.215087 -0.41021
vn 0.0442288 -0.557606 -0.828927
vn 0.148524 -0.403665 0.902771
vn 0.0442288 -0.557606 -0.828927
vn -0.00269192 -0.396709 -0.917941
vn -0.365612 -0.252868 0.89576
vn 0.148524 -0.403665 0.902771
vn 0.968727 0.226724 -0.100824
vn -0.365612 -0.252868 0.89576
vn -0.00269192 -0.396709 -0.917941
vn 0.810881 0.200992 -0.549612
vn 0.957606 0.27753 0.0772509
vn 0.968727 0.226724 -0.100824
vn 0.810881 0.200992 -0.549612
vn 0.886265 0.215087 -0.41021
g Default
usemtl Default
s 1
f 26//1 358//2 49//3 25//4
f 354//5 357//6 28//7 29//8
f 339//9 60//10 335//11 355//12
f 40//13 41//14 355//15
f 353//16 39//17 40//18
f 352//19 38//20 39//21 353//22
f 351//23 37//24 38//25 352//26
f 350//27 36//28 37//29 351//30
f 349//31 35//32 36//33 350//34
f 348//35 34//36 35//37 349//38
f 347//39 33//40 34//41 348//42
f 346//43 32//44 33//45 347//46
f 345//47 31//48 32//49 346//50
f 30//51 31//52 345//53
f 354//54 29//55 30//56
f 341//57 107//58 83//59 338//60
f 340//61 96//62 72//63 337//64
f 340//65 97//66 121//67 344//68
f 96//69 340//70 344//71 120//72
f 344//73 121//74 145//75 343//76
f 120//77 344//78 343//79 144//80
f 343//81 145//82 131//83 342//84
f 144//85 343//86 342//87 132//88
f 342//89 131//90 107//91 341//92
f 132//93 342//94 341//95 108//96
f 339//97 355//98 84//99 338//100
f 338//101 83//102 60//103 339//104
f 337//105 72//106 354//107 336//108
f 336//109 50//110 73//111 337//112
f 334//113 59//114 58//115 333//116
f 333//117 58//118 57//119 332//120
f 332//121 57//122 56//123 331//124
f 331//125 56//126 55//127 330//128
f 330//129 55//130 54//131 329//132
f 329//133 54//134 53//135 328//136
f 328//137 53//138 52//139 327//140
f 327//141 52//142 51//143 326//144
f 50//145 336//146 354//147 356//148
f 75//149 74//150 51//151 52//152
f 323//153 322//154 321//155 320//156
f 325//157 324//158 322//159 323//160
f 325//161 323//162 293//163 292//164
f 323//165 320//166 294//167 293//168
f 322//169 324//170 13//171 14//172
f 321//173 322//174 14//175 15//176
f 324//177 325//178 292//179 13//180
f 320//181 321//182 15//183 294//184
f 293//185 38//186 37//187 292//188
f 294//189 39//190 38//191 293//192
f 318//193 317//194 316//195 319//196
f 319//197 316//198 315//199 314//200
f 319//201 314//202 7//203 8//204
f 318//205 319//206 8//207 9//208
f 314//209 315//210 286//211 7//212
f 315//213 316//214 287//215 286//216
f 316//217 317//218 288//219 287//220
f 317//221 318//222 9//223 288//224
f 313//225 312//226 309//227 308//228
f 312//229 311//230 310//231 309//232
f 62//233 61//234 42//235 43//236
f 44//237 63//238 62//239 43//240
f 45//241 64//242 63//243 44//244
f 46//245 65//246 64//247 45//248
f 47//249 66//250 65//251 46//252
f 48//253 67//254 66//255 47//256
f 25//257 49//258 67//259 48//260
f 76//261 75//262 52//263 53//264
f 77//265 76//266 53//267 54//268
f 78//269 77//270 54//271 55//272
f 79//273 78//274 55//275 56//276
f 80//277 79//278 56//279 57//280
f 81//281 80//282 57//283 58//284
f 82//285 81//286 58//287 59//288
f 85//289 84//290 355//291 61//292
f 86//293 85//294 61//295 62//296
f 63//297 87//298 86//299 62//300
f 64//301 88//302 87//303 63//304
f 65//305 89//306 88//307 64//308
f 66//309 90//310 89//311 65//312
f 67//313 91//314 90//315 66//316
f 49//317 68//318 91//319 67//320
f 69//321 93//322 92//323 68//324
f 70//325 94//326 93//327 69//328
f 71//329 95//330 94//331 70//332
f 72//333 96//334 95//335 71//336
f 99//337 98//338 74//339 75//340
f 100//341 99//342 75//343 76//344
f 101//345 100//346 76//347 77//348
f 102//349 101//350 77//351 78//352
f 103//353 102//354 78//355 79//356
f 104//357 103//358 79//359 80//360
f 105//361 104//362 80//363 81//364
f 106//365 105//366 81//367 82//368
f 341//369 338//370 84//371 108//372
f 109//373 108//374 84//375 85//376
f 110//377 109//378 85//379 86//380
f 87//381 111//382 110//383 86//384
f 88//385 112//386 111//387 87//388
f 89//389 113//390 112//391 88//392
f 90//393 114//394 113//395 89//396
f 91//397 115//398 114//399 90//400
f 68//401 92//402 115//403 91//404
f 93//405 117//406 116//407 92//408
f 94//409 118//410 117//411 93//412
f 95//413 119//414 118//415 94//416
f 96//417 120//418 119//419 95//420
f 123//421 122//422 98//423 99//424
f 124//425 123//426 99//427 100//428
f 125//429 124//430 100//431 101//432
f 126//433 125//434 101//435 102//436
f 127//437 126//438 102//439 103//440
f 128//441 127//442 103//443 104//444
f 129//445 128//446 104//447 105//448
f 130//449 129//450 105//451 106//452
f 133//453 132//454 108//455 109//456
f 134//457 133//458 109//459 110//460
f 111//461 135//462 134//463 110//464
f 112//465 136//466 135//467 111//468
f 113//469 137//470 136//471 112//472
f 114//473 138//474 137//475 113//476
f 115//477 139//478 138//479 114//480
f 92//481 116//482 139//483 115//484
f 140//485 135//486 136//487 141//488
f 141//489 116//490 117//491 140//492
f 142//493 134//494 135//495 140//496
f 140//497 117//498 118//499 142//500
f 143//501 133//502 134//503 142//504
f 142//505 118//506 119//507 143//508
f 144//509 132//510 133//511 143//512
f 143//513 119//514 120//515 144//516
f 146//517 122//518 123//519 147//520
f 147//521 129//522 130//523 146//524
f 147//525 123//526 124//527 148//528
f 148//529 128//530 129//531 147//532
f 148//533 126//534 127//535 128//536
f 124//537 125//538 126//539 148//540
f 138//541 139//542 116//543 141//544
f 137//545 138//546 141//547 136//548
f 149//549 150//550 2//551 1//552
f 150//553 151//554 3//555 2//556
f 151//557 152//558 4//559 3//560
f 152//561 153//562 5//563 4//564
f 153//565 154//566 6//567 5//568
f 154//569 155//570 7//571 6//572
f 7//573 155//574 156//575 8//576
f 8//577 156//578 157//579 9//580
f 9//581 157//582 158//583 10//584
f 10//585 158//586 159//587 11//588
f 11//589 159//590 160//591 12//592
f 12//593 160//594 161//595 13//596
f 13//597 161//598 162//599 14//600
f 14//601 162//602 163//603 15//604
f 15//605 163//606 164//607 16//608
f 16//609 164//610 165//611 17//612
f 17//613 165//614 166//615 18//616
f 18//617 166//618 167//619 19//620
f 167//621 168//622 20//623 19//624
f 168//625 169//626 21//627 20//628
f 169//629 170//630 22//631 21//632
f 170//633 171//634 23//635 22//636
f 171//637 172//638 24//639 23//640
f 172//641 149//642 1//643 24//644
f 173//645 174//646 150//647 149//648
f 174//649 175//650 151//651 150//652
f 175//653 176//654 152//655 151//656
f 176//657 177//658 153//659 152//660
f 177//661 178//662 154//663 153//664
f 178//665 179//666 155//667 154//668
f 155//669 179//670 180//671 156//672
f 156//673 180//674 181//675 157//676
f 157//677 181//678 182//679 158//680
f 158//681 182//682 183//683 159//684
f 159//685 183//686 184//687 160//688
f 160//689 184//690 185//691 161//692
f 161//693 185//694 186//695 162//696
f 162//697 186//698 187//699 163//700
f 163//701 187//702 188//703 164//704
f 164//705 188//706 189//707 165//708
f 165//709 189//710 190//711 166//712
f 166//713 190//714 191//715 167//716
f 191//717 192//718 168//719 167//720
f 192//721 193//722 169//723 168//724
f 193//725 194//726 170//727 169//728
f 194//729 195//730 171//731 170//732
f 195//733 196//734 172//735 171//736
f 196//737 173//738 149//739 172//740
f 197//741 198//742 174//743 173//744
f 198//745 199//746 175//747 174//748
f 199//749 200//750 176//751 175//752
f 200//753 201//754 177//755 176//756
f 201//757 202//758 178//759 177//760
f 202//761 203//762 179//763 178//764
f 179//765 203//766 204//767 180//768
f 180//769 204//770 205//771 181//772
f 181//773 205//774 206//775 182//776
f 182//777 206//778 207//779 183//780
f 183//781 207//782 208//783 184//784
f 184//785 208//786 209//787 185//788
f 185//789 209//790 210//791 186//792
f 186//793 210//794 211//795 187//796
f 187//797 211//798 212//799 188//800
f 188//801 212//802 213//803 189//804
f 189//805 213//806 214//807 190//808
f 190//809 214//810 215//811 191//812
f 215//813 216//814 192//815 191//816
f 216//817 217//818 193//819 192//820
f 217//821 218//822 194//823 193//824
f 218//825 219//826 195//827 194//828
f 219//829 220//830 196//831 195//832
f 220//833 197//834 173//835 196//836
f 221//837 222//838 198//839 197//840
f 222//841 223//842 199//843 198//844
f 223//845 224//846 200//847 199//848
f 224//849 225//850 201//851 200//852
f 225//853 226//854 202//855 201//856
f 226//857 227//858 203//859 202//860
f 203//861 227//862 228//863 204//864
f 204//865 228//866 229//867 205//868
f 205//869 229//870 230//871 206//872
f 206//873 230//874 231//875 207//876
f 207//877 231//878 232//879 208//880
f 208//881 232//882 233//883 209//884
f 209//885 233//886 234//887 210//888
f 210//889 234//890 235//891 211//892
f 211//893 235//894 236//895 212//896
f 212//897 236//898 237//899 213//900
f 213//901 237//902 238//903 214//904
f 214//905 238//906 239//907 215//908
f 239//909 240//910 216//911 215//912
f 240//913 241//914 217//915 216//916
f 241//917 242//918 218//919 217//920
f 242//921 243//922 219//923 218//924
f 243//925 244//926 220//927 219//928
f 244//929 221//930 197//931 220//932
f 245//933 246//934 222//935 221//936
f 246//937 247//938 223//939 222//940
f 247//941 248//942 224//943 223//944
f 248//945 249//946 225//947 224//948
f 249//949 250//950 226//951 225//952
f 250//953 251//954 227//955 226//956
f 227//957 251//958 252//959 228//960
f 228//961 252//962 253//963 229//964
f 229//965 253//966 254//967 230//968
f 230//969 254//970 255//971 231//972
f 231//973 255//974 256//975 232//976
f 232//977 256//978 257//979 233//980
f 233//981 257//982 258//983 234//984
f 234//985 258//986 259//987 235//988
f 235//989 259//990 260//991 236//992
f 236//993 260//994 261//995 237//996
f 237//997 261//998 262//999 238//1000
f 238//1001 262//1002 263//1003 239//1004
f 263//1005 264//1006 240//1007 239//1008
f 264//1009 265//1010 241//1011 240//1012
f 265//1013 266//1014 242//1015 241//1016
f 266//1017 267//1018 243//1019 242//1020
f 267//1021 268//1022 244//1023 243//1024
f 268//1025 245//1026 221//1027 244//1028
f 265//1029 264//1030 269//1031 270//1032
f 246//1033 245//1034 270//1035 269//1036
f 264//1037 263//1038 271//1039 269//1040
f 247//1041 246//1042 269//1043 271//1044
f 263//1045 262//1046 272//1047 271//1048
f 248//1049 247//1050 271//1051 272//1052
f 262//1053 261//1054 273//1055 272//1056
f 249//1057 248//1058 272//1059 273//1060
f 250//1061 249//1062 273//1063 274//1064
f 261//1065 260//1066 274//1067 273//1068
f 251//1069 250//1070 274//1071 275//1072
f 260//1073 259//1074 275//1075 274//1076
f 252//1077 251//1078 275//1079 276//1080
f 259//1081 258//1082 276//1083 275//1084
f 253//1085 252//1086 276//1087 277//1088
f 258//1089 257//1090 277//1091 276//1092
f 256//1093 255//1094 277//1095 257//1096
f 255//1097 254//1098 253//1099 277//1100
f 245//1101 268//1102 267//1103 270//1104
f 270//1105 267//1106 266//1107 265//1108
f 279//1109 48//1110 47//1111 278//1112
f 1//1113 280//1114 279//1115 24//1116
f 280//1117 25//1118 48//1119 279//1120
f 2//1121 281//1122 280//1123 1//1124
f 281//1125 26//1126 25//1127 280//1128
f 3//1129 282//1130 281//1131 2//1132
f 282//1133 27//1134 26//1135 281//1136
f 4//1137 283//1138 282//1139 3//1140
f 283//1141 28//1142 27//1143 282//1144
f 5//1145 284//1146 283//1147 4//1148
f 284//1149 29//1150 28//1151 283//1152
f 6//1153 285//1154 284//1155 5//1156
f 285//1157 30//1158 29//1159 284//1160
f 7//1161 286//1162 285//1163 6//1164
f 286//1165 31//1166 30//1167 285//1168
f 287//1169 32//1170 31//1171 286//1172
f 288//1173 33//1174 32//1175 287//1176
f 10//1177 289//1178 288//1179 9//1180
f 289//1181 34//1182 33//1183 288//1184
f 11//1185 290//1186 289//1187 10//1188
f 290//1189 35//1190 34//1191 289//1192
f 12//1193 291//1194 290//1195 11//1196
f 291//1197 36//1198 35//1199 290//1200
f 13//1201 292//1202 291//1203 12//1204
f 292//1205 37//1206 36//1207 291//1208
f 16//1209 295//1210 294//1211 15//1212
f 295//1213 40//1214 39//1215 294//1216
f 17//1217 296//1218 295//1219 16//1220
f 296//1221 41//1222 40//1223 295//1224
f 18//1225 297//1226 296//1227 17//1228
f 297//1229 42//1230 41//1231 296//1232
f 19//1233 298//1234 297//1235 18//1236
f 298//1237 43//1238 42//1239 297//1240
f 20//1241 299//1242 298//1243 19//1244
f 299//1245 44//1246 43//1247 298//1248
f 21//1249 300//1250 299//1251 20//1252
f 300//1253 45//1254 44//1255 299//1256
f 22//1257 301//1258 300//1259 21//1260
f 301//1261 46//1262 45//1263 300//1264
f 278//1265 47//1266 46//1267 301//1268
f 306//1269 307//1270 22//1271 23//1272
f 305//1273 306//1274 23//1275 24//1276
f 303//1277 304//1278 279//1279 278//1280
f 304//1281 305//1282 24//1283 279//1284
f 307//1285 302//1286 301//1287 22//1288
f 302//1289 303//1290 278//1291 301//1292
f 312//1293 313//1294 307//1295 306//1296
f 311//1297 312//1298 306//1299 305//1300
f 309//1301 310//1302 304//1303 303//1304
f 310//1305 311//1306 305//1307 304//1308
f 313//1309 308//1310 302//1311 307//1312
f 308//1313 309//1314 303//1315 302//1316
f 97//1317 340//1318 337//1319 73//1320
f 355//1321 41//1322 42//1323 61//1324
f 326//1325 51//1326 50//1327 356//1328
f 51//1329 74//1330 73//1331 50//1332
f 74//1333 98//1334 97//1335 73//1336
f 98//1337 122//1338 121//1339 97//1340
f 145//1341 121//1342 122//1343 146//1344
f 146//1345 130//1346 131//1347 145//1348
f 131//1349 130//1350 106//1351 107//1352
f 107//1353 106//1354 82//1355 83//1356
f 83//1357 82//1358 59//1359 60//1360
f 335//1361 60//1362 59//1363 334//1364
f 354//1365 72//1366 71//1367 357//1368
f 358//1369 69//1370 68//1371 49//1372
f 359//1373 70//1374 69//1375 358//1376
f 357//1377 71//1378 70//1379 359//1380
f 28//1381 357//1382 359//1383 27//1384
f 27//1385 359//1386 358//1387 26//1388
f 363//1389 361//1390 355//1391 335//1392
f 365//1393 364//1394 334//1395 333//1396
f 366//1397 365//1398 333//1399 332//1400
f 367//1401 366//1402 332//1403 331//1404
f 368//1405 367//1406 331//1407 330//1408
f 369//1409 368//1410 330//1411 329//1412
f 370//1413 369//1414 329//1415 328//1416
f 371//1417 370//1418 328//1419 327//1420
f 372//1421 371//1422 327//1423 326//1424
f 362//1425 360//1426 356//1427 354//1428
f 360//1429 372//1430 326//1431 356//1432
f 364//1433 363//1434 335//1435 334//1436
l 373 361//1437
l 374 362//1438
f 345//1439 387//1440 386//1441 30//1442
f 400//1443 399//1444 398//1445 397//1446
f 346//1447 388//1448 387//1449 345//1450
f 404//1451 403//1452 402//1453 401//1454
f 347//1455 389//1456 388//1457 346//1458
f 408//1459 407//1460 406//1461 405//1462
f 348//1463 390//1464 389//1465 347//1466
f 412//1467 411//1468 410//1469 409//1470
f 349//1471 391//1472 390//1473 348//1474
f 416//1475 415//1476 414//1477 413//1478
f 350//1479 392//1480 391//1481 349//1482
f 420//1483 419//1484 418//1485 417//1486
f 351//1487 393//1488 392//1489 350//1490
f 424//1491 423//1492 422//1493 421//1494
f 352//1495 394//1496 393//1497 351//1498
f 428//1499 427//1500 426//1501 425//1502
f 353//1503 395//1504 394//1505 352//1506
f 432//1507 431//1508 430//1509 429//1510
f 40//1511 396//1512 395//1513 353//1514
f 436//1515 435//1516 434//1517 433//1518
f 400//1519 397//1520 386//1521 387//1522
f 397//1523 398//1524 376//1525 386//1526
f 376//1527 398//1528 399//1529 378//1530
f 378//1531 399//1532 400//1533 387//1534
f 404//1535 401//1536 387//1537 388//1538
f 401//1539 402//1540 378//1541 387//1542
f 378//1543 402//1544 403//1545 380//1546
f 380//1547 403//1548 404//1549 388//1550
f 408//1551 405//1552 388//1553 389//1554
f 405//1555 406//1556 380//1557 388//1558
f 380//1559 406//1560 407//1561 382//1562
f 382//1563 407//1564 408//1565 389//1566
f 412//1567 409//1568 389//1569 390//1570
f 409//1571 410//1572 382//1573 389//1574
f 382//1575 410//1576 411//1577 384//1578
f 384//1579 411//1580 412//1581 390//1582
f 416//1583 413//1584 390//1585 391//1586
f 413//1587 414//1588 384//1589 390//1590
f 384//1591 414//1592 415//1593 385//1594
f 385//1595 415//1596 416//1597 391//1598
f 392//1599 420//1600 417//1601 391//1602
f 417//1603 418//1604 385//1605 391//1606
f 418//1607 419//1608 383//1609 385//1610
f 383//1611 419//1612 420//1613 392//1614
f 393//1615 424//1616 421//1617 392//1618
f 421//1619 422//1620 383//1621 392//1622
f 422//1623 423//1624 381//1625 383//1626
f 381//1627 423//1628 424//1629 393//1630
f 394//1631 428//1632 425//1633 393//1634
f 425//1635 426//1636 381//1637 393//1638
f 426//1639 427//1640 379//1641 381//1642
f 379//1643 427//1644 428//1645 394//1646
f 395//1647 432//1648 429//1649 394//1650
f 429//1651 430//1652 379//1653 394//1654
f 430//1655 431//1656 377//1657 379//1658
f 377//1659 431//1660 432//1661 395//1662
f 396//1663 436//1664 433//1665 395//1666
f 433//1667 434//1668 377//1669 395//1670
f 434//1671 435//1672 375//1673 377//1674
f 375//1675 435//1676 436//1677 396//1678
f 451//1679 450//1680 449//1681 448//1682
f 455//1683 454//1684 453//1685 452//1686
f 459//1687 458//1688 457//1689 456//1690
f 463//1691 462//1692 461//1693 460//1694
f 467//1695 466//1696 465//1697 464//1698
f 471//1699 470//1700 469//1701 468//1702
f 475//1703 474//1704 473//1705 472//1706
f 479//1707 478//1708 477//1709 476//1710
f 483//1711 482//1712 481//1713 480//1714
f 487//1715 486//1716 485//1717 484//1718
f 440//1719 451//1720 448//1721 365//1722
f 448//1723 449//1724 364//1725 365//1726
f 439//1727 364//1728 449//1729 450//1730
f 440//1731 439//1732 450//1733 451//1734
f 442//1735 455//1736 452//1737 366//1738
f 452//1739 453//1740 365//1741 366//1742
f 440//1743 365//1744 453//1745 454//1746
f 442//1747 440//1748 454//1749 455//1750
f 444//1751 459//1752 456//1753 367//1754
f 456//1755 457//1756 366//1757 367//1758
f 457//1759 458//1760 442//1761 366//1762
f 444//1763 442//1764 458//1765 459//1766
f 446//1767 463//1768 460//1769 368//1770
f 460//1771 461//1772 367//1773 368//1774
f 461//1775 462//1776 444//1777 367//1778
f 446//1779 444//1780 462//1781 463//1782
f 445//1783 467//1784 464//1785 369//1786
f 369//1787 464//1788 465//1789 368//1790
f 465//1791 466//1792 446//1793 368//1794
f 467//1795 445//1796 446//1797 466//1798
f 443//1799 471//1800 468//1801 370//1802
f 370//1803 468//1804 469//1805 369//1806
f 469//1807 470//1808 445//1809 369//1810
f 471//1811 443//1812 445//1813 470//1814
f 472//1815 371//1816 441//1817 475//1818
f 371//1819 472//1820 473//1821 370//1822
f 473//1823 474//1824 443//1825 370//1826
f 475//1827 441//1828 443//1829 474//1830
f 476//1831 372//1832 447//1833 479//1834
f 372//1835 476//1836 477//1837 371//1838
f 477//1839 478//1840 441//1841 371//1842
f 479//1843 447//1844 441//1845 478//1846
f 480//1847 360//1848 438//1849 483//1850
f 360//1851 480//1852 481//1853 372//1854
f 481//1855 482//1856 447//1857 372//1858
f 483//1859 438//1860 447//1861 482//1862
f 439//1863 487//1864 484//1865 364//1866
f 484//1867 485//1868 363//1869 364//1870
f 437//1871 363//1872 485//1873 486//1874
f 439//1875 437//1876 486//1877 487//1878
